AlexNet_config1/vcd/fp_15_4.vcd
$date
   Wed Apr  8 00:46:50 2026
$end
$version
  2019.2
$end
$timescale
  1ps
$end
$scope module tb_fp $end
$scope module dut $end
$var wire 1 ! clk $end
$var wire 1 " rst_n $end
$var wire 1 # start $end
$var reg 1 $ ready $end
$var reg 1 % valid $end
$var wire 5 & total_bits [4:0] $end
$var wire 4 ' exp_bits [3:0] $end
$var wire 16 ( A [15:0] $end
$var wire 16 ) B [15:0] $end
$var reg 16 * result [15:0] $end
$var reg 16 + A_ff [15:0] $end
$var reg 16 , B_ff [15:0] $end
$var reg 5 - total_bits_ff [4:0] $end
$var reg 4 . exp_bits_ff [3:0] $end
$var reg 1 / start_ff $end
$var reg 5 0 man_bits [4:0] $end
$var reg 1 1 sign_a $end
$var reg 1 2 sign_b $end
$var reg 8 3 exp_a [7:0] $end
$var reg 8 4 exp_b [7:0] $end
$var reg 14 5 man_a [13:0] $end
$var reg 14 6 man_b [13:0] $end
$var reg 4 7 mult_precision [3:0] $end
$var reg 28 8 mult_result [27:0] $end
$var reg 1 9 mult_result_sign $end
$var reg 1 : mult_done $end
$var reg 1 ; mult_busy $end
$var reg 1 < overflow $end
$var reg 14 = normalized_man [13:0] $end
$var reg 8 > final_exp [7:0] $end
$var reg 1 ? is_infinity $end
$var reg 1 @ is_zero $end
$var reg 1 A is_input_zero $end
$var reg 1 B valid_pre $end
$var reg 1 C ready_pre $end
$var reg 16 D result_pre [15:0] $end
$var parameter 32 E MAX_TOTAL_BITS [31:0] $end
$var parameter 32 F MAX_EXP_BITS [31:0] $end
$var parameter 32 G MAX_MAN_BITS [31:0] $end
$scope module mantissa_core $end
$var wire 1 ! clk $end
$var wire 1 " rst_n $end
$var wire 1 H start $end
$var wire 4 I precision [3:0] $end
$var wire 14 J A [13:0] $end
$var wire 14 K B [13:0] $end
$var wire 1 L sign_a $end
$var wire 1 M sign_b $end
$var wire 1 N is_float $end
$var reg 28 8 result [27:0] $end
$var reg 1 9 result_sign $end
$var reg 1 : done $end
$var reg 1 ; busy $end
$var reg 2 O state [1:0] $end
$var reg 32 P acc [31:0] $end
$var reg 32 Q mcd_r [31:0] $end
$var reg 15 R mpr_r [14:0] $end
$var reg 1 S prev_b $end
$var reg 4 T cyc [3:0] $end
$var reg 4 U max_cyc [3:0] $end
$var reg 1 V sign_r $end
$var reg 14 W prec_mask [13:0] $end
$var reg 14 X a_proc [13:0] $end
$var reg 14 Y b_proc [13:0] $end
$var reg 32 Z mcd_s [31:0] $end
$var reg 32 [ booth_pp [31:0] $end
$var reg 1 \ clk_en $end
$var parameter 0 ] MAX_MAN_BITS $end
$var parameter 0 ^ ACC_W $end
$upscope $end
$scope module exp_core $end
$var wire 4 _ exp_bits [3:0] $end
$var wire 8 ` exp_a [7:0] $end
$var wire 8 a exp_b [7:0] $end
$var wire 1 b norm_shift $end
$var reg 8 > final_exp [7:0] $end
$var reg 1 ? is_infinity $end
$var reg 1 @ is_zero $end
$var reg 11 c calc_exp [10:0] $end
$var reg 11 d bias [10:0] $end
$var reg 11 e max_exp_val [10:0] $end
$var parameter 32 f MAX_EXP_BITS [31:0] $end
$upscope $end
$upscope $end
$upscope $end
$enddefinitions $end
#0
$dumpvars
0!
1"
0#
0$
0%
b1111 &
b100 '
b1011100111100 (
b101000111000111 )
b101111100101010 *
b1011100111100 +
b101000111000111 ,
b1111 -
b100 .
0/
b1010 0
01
12
b101 3
b100 4
b1100111100 5
b111000111 6
b1011 7
b1110010101000101011000 8
19
0:
1;
1<
b1100101010 =
b11 >
0?
0@
0A
0B
0C
b101111100101010 D
b10000 E
b1000 F
b1110 G
0H
b1011 I
b1100111100 J
b111000111 K
0L
1M
1N
b10 O
b11001010100100 P
b111001111000000 Q
b1011100 R
0S
b10 T
b110 U
1V
b11111111111 W
b11100111100 X
b10111000111 Y
b111001111000000 Z
b0 [
1\
b1110 ]
b100000 ^
b100 _
b101 `
b100 a
1b
b11 c
b111 d
b1111 e
b1000 f
$end
#1005000
1!
0%
b11100111100000000 Q
b10111 R
b11 T
b11100111100000000 Z
b11111111111111100011000100000000 [
#1010000
0!
#1015000
1!
0%
b11111111111111100110001110100100 P
b1110011110000000000 Q
b101 R
1S
b100 T
b1110011110000000000 Z
b11100111100000000000 [
#1020000
0!
#1025000
1!
0%
b11001101101110100100 P
b111001111000000000000 Q
b1 R
0S
b101 T
b111001111000000000000 Z
b111001111000000000000 [
#1030000
0!
#1035000
1!
0%
b11 O
b1010011100101110100100 P
b11100111100000000000000 Q
b0 R
b110 T
b11100111100000000000000 Z
b0 [
0\
#1040000
0!
#1045000
1!
0%
b1010011100101110100100 8
1:
0;
b100111001 =
b0 O
#1050000
0!
#1055000
1!
0%
0:
1B
1C
b100110100111001 D
#1060000
0!
#1065000
1!
1$
1%
b100110100111001 *
0B
#1070000
0!
#1075000
1!
0%
#1080000
0!
#1085000
1!
1#
0%
b101110101011011 (
b11111110011000 )
#1090000
0!
#1095000
1!
0#
0%
b101110101011011 +
b11111110011000 ,
1/
11
02
b111 3
b1111 4
b101011011 5
b1110011000 6
b1111 >
1?
1H
b101011011 J
b1110011000 K
1L
0M
b11111111111 W
b10101011011 X
b11110011000 Y
b111 `
b1111 a
b10000 c
b111 d
b1111 e
#1100000
0!
#1105000
1!
0%
0/
1;
0C
0H
b1 O
b0 T
#1110000
0!
#1115000
1!
0$
0%
b10 O
b0 P
b10101011011 Q
b11110011000 R
b10101011011 Z
1\
#1120000
0!
#1125000
1!
0%
b1010101101100 Q
b111100110 R
b1 T
b1010101101100 Z
b11111111111111111101010100101000 [
#1130000
0!
#1135000
1!
0%
b11111111111111111101010100101000 P
b101010110110000 Q
b1111001 R
1S
b10 T
b101010110110000 Z
b1010101101100000 [
#1140000
0!
#1145000
1!
0%
b1000000010001000 P
b10101011011000000 Q
b11110 R
0S
b11 T
b10101011011000000 Z
b11111111111111010101001010000000 [
#1150000
0!
#1155000
1!
0%
b11111111111111011101001100001000 P
b1010101101100000000 Q
b111 R
1S
b100 T
b1010101101100000000 Z
b0 [
#1160000
0!
#1165000
1!
0%
b101010110110000000000 Q
b1 R
b101 T
b101010110110000000000 Z
b1010101101100000000000 [
#1170000
0!
#1175000
1!
0%
b11 O
b1010001010101100001000 P
b10101011011000000000000 Q
b0 R
0S
b110 T
b10101011011000000000000 Z
b0 [
0\
#1180000
0!
#1185000
1!
0%
b1010001010101100001000 8
1:
0;
b100010101 =
b0 O
#1190000
0!
#1195000
1!
0%
0:
1B
1C
b111110000000000 D
#1200000
0!
#1205000
1!
1$
1%
b111110000000000 *
0B
#1210000
0!
#1215000
1!
0%
#1220000
0!
#1225000
1!
1#
0%
b111111001010000 (
b100011001000 )
#1230000
0!
#1235000
1!
0#
0%
b111111001010000 +
b100011001000 ,
1/
b1111 3
b10 4
b1001010000 5
b11001000 6
b1011 >
0?
1H
b1001010000 J
b11001000 K
b11111111111 W
b11001010000 X
b10011001000 Y
b1111 `
b10 a
b1011 c
b111 d
b1111 e
#1240000
0!
#1245000
1!
0%
0/
1;
0C
0H
b1 O
b0 T
#1250000
0!
#1255000
1!
0$
0%
b10 O
b0 P
b11001010000 Q
b10011001000 R
b11001010000 Z
1\
#1260000
0!
#1265000
1!
0%
b1100101000000 Q
b100110010 R
b1 T
b1100101000000 Z
b11111111111111111100110110000000 [
#1270000
0!
#1275000
1!
0%
b11111111111111111100110110000000 P
b110010100000000 Q
b1001100 R
1S
b10 T
b110010100000000 Z
b110010100000000 [
#1280000
0!
#1285000
1!
0%
b11001010000000 P
b11001010000000000 Q
b10011 R
0S
b11 T
b11001010000000000 Z
b11111111111111100110110000000000 [
#1290000
0!
#1295000
1!
0%
b11111111111111101001111010000000 P
b1100101000000000000 Q
b100 R
1S
b100 T
b1100101000000000000 Z
b1100101000000000000 [
#1300000
0!
#1305000
1!
0%
b1001110111010000000 P
b110010100000000000000 Q
b1 R
0S
b101 T
b110010100000000000000 Z
b110010100000000000000 [
#1310000
0!
#1315000
1!
0%
b11 O
b111100010111010000000 P
b11001010000000000000000 Q
b0 R
b110 T
b11001010000000000000000 Z
b0 [
0\
#1320000
0!
#1325000
1!
0%
b111100010111010000000 8
1:
0;
0<
b1110001011 =
b1010 >
b0 O
0b
b1010 c
b111 d
b1111 e
#1330000
0!
#1335000
1!
0%
0:
1B
1C
b110101110001011 D
#1340000
0!
#1345000
1!
1$
1%
b110101110001011 *
0B
#1350000
0!
#1355000
1!
0%
#1360000
0!
#1365000
1!
1#
0%
b111101010001 (
b1010110001101 )
#1370000
0!
#1375000
1!
0#
0%
b111101010001 +
b1010110001101 ,
1/
01
b11 3
b101 4
b1101010001 5
b110001101 6
b1 >
1H
b1101010001 J
b110001101 K
0L
b11111111111 W
b11101010001 X
b10110001101 Y
b11 `
b101 a
b1 c
b111 d
b1111 e
#1380000
0!
#1385000
1!
0%
0/
1;
0C
0H
b1 O
b0 T
0V
#1390000
0!
#1395000
1!
0$
0%
b10 O
b0 P
b11101010001 Q
b10110001101 R
b11101010001 Z
b11101010001 [
1\
#1400000
0!
#1405000
1!
0%
b11101010001 P
b1110101000100 Q
b101100011 R
b1 T
b1110101000100 Z
b11111111111111111110001010111100 [
#1410000
0!
#1415000
1!
0%
b11111111111111111110101000001101 P
b111010100010000 Q
b1011000 R
1S
b10 T
b111010100010000 Z
b111010100010000 [
#1420000
0!
#1425000
1!
0%
b101111100011101 P
b11101010001000000 Q
b10110 R
0S
b11 T
b11101010001000000 Z
b11111111111111000101011110000000 [
#1430000
0!
#1435000
1!
0%
b11111111111111001011011010011101 P
b1110101000100000000 Q
b101 R
1S
b100 T
b1110101000100000000 Z
b11101010001000000000 [
#1440000
0!
#1445000
1!
0%
b10110101100010011101 P
b111010100010000000000 Q
b1 R
0S
b101 T
b111010100010000000000 Z
b111010100010000000000 [
#1450000
0!
#1455000
1!
0%
b11 O
b1010001001110010011101 P
b11101010001000000000000 Q
b0 R
b110 T
b11101010001000000000000 Z
b0 [
0\
#1460000
0!
#1465000
1!
0%
b1010001001110010011101 8
09
1:
0;
1<
b100010011 =
b10 >
b0 O
1b
b10 c
b111 d
b1111 e
#1470000
0!
#1475000
1!
0%
0:
1B
1C
b100100010011 D
#1480000
0!
#1485000
1!
1$
1%
b100100010011 *
0B
#1490000
0!
#1495000
1!
0%
#1500000
0!
#1505000
1!
1#
0%
b101101010010000 (
b110110010101100 )
#1510000
0!
#1515000
1!
0#
0%
b101101010010000 +
b110110010101100 ,
1/
11
12
b110 3
b1011 4
b1010010000 5
b10101100 6
b1011 >
1H
b1010010000 J
b10101100 K
1L
1M
b11111111111 W
b11010010000 X
b10010101100 Y
b110 `
b1011 a
b1011 c
b111 d
b1111 e
#1520000
0!
#1525000
1!
0%
0/
1;
0C
0H
b1 O
b0 T
#1530000
0!
#1535000
1!
0$
0%
b10 O
b0 P
b11010010000 Q
b10010101100 R
b11010010000 Z
1\
#1540000
0!
#1545000
1!
0%
b1101001000000 Q
b100101011 R
b1 T
b1101001000000 Z
b11111111111111111110010111000000 [
#1550000
0!
#1555000
1!
0%
b11111111111111111110010111000000 P
b110100100000000 Q
b1001010 R
1S
b10 T
b110100100000000 Z
b11111111111111111001011100000000 [
#1560000
0!
#1565000
1!
0%
b11111111111111110111110011000000 P
b11010010000000000 Q
b10010 R
b11 T
b11010010000000000 Z
b11111111111111100101110000000000 [
#1570000
0!
#1575000
1!
0%
b11111111111111011101100011000000 P
b1101001000000000000 Q
b100 R
b100 T
b1101001000000000000 Z
b1101001000000000000 [
#1580000
0!
#1585000
1!
0%
b1000110100011000000 P
b110100100000000000000 Q
b1 R
0S
b101 T
b110100100000000000000 Z
b110100100000000000000 [
#1590000
0!
#1595000
1!
0%
b11 O
b111101010100011000000 P
b11010010000000000000000 Q
b0 R
b110 T
b11010010000000000000000 Z
b0 [
0\
#1600000
0!
#1605000
1!
0%
b111101010100011000000 8
1:
0;
0<
b1110101010 =
b1010 >
b0 O
0b
b1010 c
b111 d
b1111 e
#1610000
0!
#1615000
1!
0%
0:
1B
1C
b10101110101010 D
#1620000
0!
#1625000
1!
1$
1%
b10101110101010 *
0B
#1630000
0!
#1635000
1!
0%
#1640000
0!
#1645000
1!
1#
0%
b101010100100101 (
b101100011100000 )
#1650000
0!
#1655000
1!
0#
0%
b101010100100101 +
b101100011100000 ,
1/
b101 3
b110 4
b100100101 5
b11100000 6
b100 >
1H
b100100101 J
b11100000 K
b11111111111 W
b10100100101 X
b10011100000 Y
b101 `
b110 a
b100 c
b111 d
b1111 e
#1660000
0!
#1665000
1!
0%
0/
1;
0C
0H
b1 O
b0 T
#1670000
0!
#1675000
1!
0$
0%
b10 O
b0 P
b10100100101 Q
b10011100000 R
b10100100101 Z
1\
#1680000
0!
#1685000
1!
0%
b1010010010100 Q
b100111000 R
b1 T
b1010010010100 Z
#1690000
0!
#1695000
1!
0%
b101001001010000 Q
b1001110 R
b10 T
b101001001010000 Z
b11111111111111110101101101100000 [
#1700000
0!
#1705000
1!
0%
b11111111111111110101101101100000 P
b10100100101000000 Q
b10011 R
1S
b11 T
b10100100101000000 Z
b0 [
#1710000
0!
#1715000
1!
0%
b1010010010100000000 Q
b100 R
b100 T
b1010010010100000000 Z
b1010010010100000000 [
#1720000
0!
#1725000
1!
0%
b1001000000001100000 P
b101001001010000000000 Q
b1 R
0S
b101 T
b101001001010000000000 Z
b101001001010000000000 [
#1730000
0!
#1735000
1!
0%
b11 O
b110010001010001100000 P
b10100100101000000000000 Q
b0 R
b110 T
b10100100101000000000000 Z
b0 [
0\
#1740000
0!
#1745000
1!
0%
b110010001010001100000 8
1:
0;
b1001000101 =
b0 O
#1750000
0!
#1755000
1!
0%
0:
1B
1C
b1001001000101 D
#1760000
0!
#1765000
1!
1$
1%
b1001001000101 *
0B
#1770000
0!
#1775000
1!
0%
#1780000
0!
#1785000
1!
1#
0%
b111010101110101 (
b110010001110110 )
#1790000
0!
#1795000
1!
0#
0%
b111010101110101 +
b110010001110110 ,
1/
b1101 3
b1001 4
b101110101 5
b1110110 6
b1111 >
1?
1H
b101110101 J
b1110110 K
b11111111111 W
b10101110101 X
b10001110110 Y
b1101 `
b1001 a
b1111 c
b111 d
b1111 e
#1800000
0!
#1805000
1!
0%
0/
1;
0C
0H
b1 O
b0 T
#1810000
0!
#1815000
1!
0$
0%
b10 O
b0 P
b10101110101 Q
b10001110110 R
b10101110101 Z
b11111111111111111111010100010110 [
1\
#1820000
0!
#1825000
1!
0%
b11111111111111111111010100010110 P
b1010111010100 Q
b100011101 R
1S
b1 T
b1010111010100 Z
b10101110101000 [
#1830000
0!
#1835000
1!
0%
b10000010111110 P
b101011101010000 Q
b1000111 R
0S
b10 T
b101011101010000 Z
b11111111111111111010100010110000 [
#1840000
0!
#1845000
1!
0%
b11111111111111111100100101101110 P
b10101110101000000 Q
b10001 R
1S
b11 T
b10101110101000000 Z
b101011101010000000 [
#1850000
0!
#1855000
1!
0%
b101000001111101110 P
b1010111010100000000 Q
b100 R
0S
b100 T
b1010111010100000000 Z
b0 [
#1860000
0!
#1865000
1!
0%
b101011101010000000000 Q
b1 R
b101 T
b101011101010000000000 Z
b101011101010000000000 [
#1870000
0!
#1875000
1!
0%
b11 O
b110000101011111101110 P
b10101110101000000000000 Q
b0 R
b110 T
b10101110101000000000000 Z
b0 [
0\
#1880000
0!
#1885000
1!
0%
b110000101011111101110 8
1:
0;
b1000010101 =
b0 O
#1890000
0!
#1895000
1!
0%
0:
1B
1C
b11110000000000 D
#1900000
0!
#1905000
1!
1$
1%
b11110000000000 *
0B
#1910000
0!
#1915000
1!
0%
#1920000
0!
#1925000
1!
1#
0%
b110111001101101 (
b101000000000101 )
#1930000
0!
#1935000
1!
0#
0%
b110111001101101 +
b101000000000101 ,
1/
b1011 3
b100 4
b1001101101 5
b101 6
b1000 >
0?
1H
b1001101101 J
b101 K
b11111111111 W
b11001101101 X
b10000000101 Y
b1011 `
b100 a
b1000 c
b111 d
b1111 e
#1940000
0!
#1945000
1!
0%
0/
1;
0C
0H
b1 O
b0 T
#1950000
0!
#1955000
1!
0$
0%
b10 O
b0 P
b11001101101 Q
b10000000101 R
b11001101101 Z
b11001101101 [
1\
#1960000
0!
#1965000
1!
0%
b11001101101 P
b1100110110100 Q
b100000001 R
b1 T
b1100110110100 Z
b1100110110100 [
#1970000
0!
#1975000
1!
0%
b10000000100001 P
b110011011010000 Q
b1000000 R
b10 T
b110011011010000 Z
b0 [
#1980000
0!
#1985000
1!
0%
b11001101101000000 Q
b10000 R
b11 T
b11001101101000000 Z
#1990000
0!
#1995000
1!
0%
b1100110110100000000 Q
b100 R
b100 T
b1100110110100000000 Z
#2000000
0!
#2005000
1!
0%
b110011011010000000000 Q
b1 R
b101 T
b110011011010000000000 Z
b110011011010000000000 [
#2010000
0!
#2015000
1!
0%
b11 O
b110011101010000100001 P
b11001101101000000000000 Q
b0 R
b110 T
b11001101101000000000000 Z
b0 [
0\
#2020000
0!
#2025000
1!
0%
b110011101010000100001 8
1:
0;
b1001110101 =
b0 O
#2030000
0!
#2035000
1!
0%
0:
1B
1C
b10001001110101 D
#2040000
0!
#2045000
1!
1$
1%
b10001001110101 *
0B
#2050000
0!
#2055000
1!
0%
#2060000
0!
#2065000
1!
1#
0%
b101000100100011 (
b100001110010011 )
#2070000
0!
#2075000
1!
0#
0%
b101000100100011 +
b100001110010011 ,
1/
b100 3
b0 4
b100100011 5
b1110010011 6
b0 >
1@
1H
b100100011 J
b1110010011 K
b11111111111 W
b10100100011 X
b11110010011 Y
b100 `
b0 a
b11111111101 c
b111 d
b1111 e
#2080000
0!
#2085000
1!
0%
0/
1;
0C
0H
b1 O
b0 T
#2090000
0!
#2095000
1!
0$
0%
b10 O
b0 P
b10100100011 Q
b11110010011 R
b10100100011 Z
b11111111111111111111101011011101 [
1\
#2100000
0!
#2105000
1!
0%
b11111111111111111111101011011101 P
b1010010001100 Q
b111100100 R
1S
b1 T
b1010010001100 Z
b1010010001100 [
#2110000
0!
#2115000
1!
0%
b111101101001 P
b101001000110000 Q
b1111001 R
0S
b10 T
b101001000110000 Z
b101001000110000 [
#2120000
0!
#2125000
1!
0%
b110000110011001 P
b10100100011000000 Q
b11110 R
b11 T
b10100100011000000 Z
b11111111111111010110111010000000 [
#2130000
0!
#2135000
1!
0%
b11111111111111011101000000011001 P
b1010010001100000000 Q
b111 R
1S
b100 T
b1010010001100000000 Z
b0 [
#2140000
0!
#2145000
1!
0%
b101001000110000000000 Q
b1 R
b101 T
b101001000110000000000 Z
b1010010001100000000000 [
#2150000
0!
#2155000
1!
0%
b11 O
b1001101110100000011001 P
b10100100011000000000000 Q
b0 R
0S
b110 T
b10100100011000000000000 Z
b0 [
0\
#2160000
0!
#2165000
1!
0%
b1001101110100000011001 8
1:
0;
1<
b11011101 =
b0 O
1b
b11111111110 c
b111 d
b1111 e
#2170000
0!
#2175000
1!
0%
0:
1B
1C
b0 D
#2180000
0!
#2185000
1!
1$
1%
b0 *
0B
#2190000
0!
#2195000
1!
0%
#2200000
0!
#2205000
1!
1#
0%
b10100011100101 (
b100011010011000 )
#2210000
0!
#2215000
1!
0#
0%
b10100011100101 +
b100011010011000 ,
1/
01
b1010 3
b1 4
b11100101 5
b1010011000 6
b101 >
0@
1H
b11100101 J
b1010011000 K
0L
b11111111111 W
b10011100101 X
b11010011000 Y
b1010 `
b1 a
b101 c
b111 d
b1111 e
#2220000
0!
#2225000
1!
0%
0/
1;
0C
0H
b1 O
b0 T
1V
#2230000
0!
#2235000
1!
0$
0%
b10 O
b0 P
b10011100101 Q
b11010011000 R
b10011100101 Z
1\
#2240000
0!
#2245000
1!
0%
b1001110010100 Q
b110100110 R
b1 T
b1001110010100 Z
b11111111111111111101100011011000 [
#2250000
0!
#2255000
1!
0%
b11111111111111111101100011011000 P
b100111001010000 Q
b1101001 R
1S
b10 T
b100111001010000 Z
b1001110010100000 [
#2260000
0!
#2265000
1!
0%
b111010101111000 P
b10011100101000000 Q
b11010 R
0S
b11 T
b10011100101000000 Z
b11111111111111011000110110000000 [
#2270000
0!
#2275000
1!
0%
b11111111111111100000001011111000 P
b1001110010100000000 Q
b110 R
1S
b100 T
b1001110010100000000 Z
b11111111111110110001101100000000 [
#2280000
0!
#2285000
1!
0%
b11111111111110010001110111111000 P
b100111001010000000000 Q
b1 R
b101 T
b100111001010000000000 Z
b1001110010100000000000 [
#2290000
0!
#2295000
1!
0%
b11 O
b1000000100010111111000 P
b10011100101000000000000 Q
b0 R
0S
b110 T
b10011100101000000000000 Z
b0 [
0\
#2300000
0!
#2305000
1!
0%
b1000000100010111111000 8
19
1:
0;
b1000 =
b0 O
#2310000
0!
#2315000
1!
0%
0:
1B
1C
b101010000001000 D
#2320000
0!
#2325000
1!
1$
1%
b101010000001000 *
0B
#2330000
0!
#2335000
1!
0%
#2340000
0!
#2345000
1!
1#
0%
b10100000001001 (
b1011101010011 )
#2350000
0!
#2355000
1!
0#
0%
b10100000001001 +
b1011101010011 ,
1/
02
b1010 3
b101 4
b1001 5
b1101010011 6
b1001 >
1H
b1001 J
b1101010011 K
0M
b11111111111 W
b10000001001 X
b11101010011 Y
b101 a
b1001 c
b111 d
b1111 e
#2360000
0!
#2365000
1!
0%
0/
1;
0C
0H
b1 O
b0 T
0V
#2370000
0!
#2375000
1!
0$
0%
b10 O
b0 P
b10000001001 Q
b11101010011 R
b10000001001 Z
b11111111111111111111101111110111 [
1\
#2380000
0!
#2385000
1!
0%
b11111111111111111111101111110111 P
b1000000100100 Q
b111010100 R
1S
b1 T
b1000000100100 Z
b1000000100100 [
#2390000
0!
#2395000
1!
0%
b110000011011 P
b100000010010000 Q
b1110101 R
0S
b10 T
b100000010010000 Z
b100000010010000 [
#2400000
0!
#2405000
1!
0%
b100110010101011 P
b10000001001000000 Q
b11101 R
b11 T
b10000001001000000 Z
b10000001001000000 [
#2410000
0!
#2415000
1!
0%
b10100111011101011 P
b1000000100100000000 Q
b111 R
b100 T
b1000000100100000000 Z
b11111111111110111111011100000000 [
#2420000
0!
#2425000
1!
0%
b11111111111111010100010111101011 P
b100000010010000000000 Q
b1 R
1S
b101 T
b100000010010000000000 Z
b1000000100100000000000 [
#2430000
0!
#2435000
1!
0%
b11 O
b111011000110111101011 P
b10000001001000000000000 Q
b0 R
0S
b110 T
b10000001001000000000000 Z
b0 [
0\
#2440000
0!
#2445000
1!
0%
b111011000110111101011 8
09
1:
0;
0<
b1101100011 =
b1000 >
b0 O
0b
b1000 c
b111 d
b1111 e
#2450000
0!
#2455000
1!
0%
0:
1B
1C
b10001101100011 D
#2460000
0!
#2465000
1!
1$
1%
b10001101100011 *
0B
#2470000
0!
#2475000
1!
0%
#2480000
0!
#2485000
1!
1#
0%
b1011010011101 (
b111100100101100 )
#2490000
0!
#2495000
1!
0#
0%
b1011010011101 +
b111100100101100 ,
1/
12
b101 3
b1110 4
b1010011101 5
b100101100 6
b1100 >
1H
b1010011101 J
b100101100 K
1M
b11111111111 W
b11010011101 X
b10100101100 Y
b101 `
b1110 a
b1100 c
b111 d
b1111 e
#2500000
0!
#2505000
1!
0%
0/
1;
0C
0H
b1 O
b0 T
1V
#2510000
0!
#2515000
1!
0$
0%
b10 O
b0 P
b11010011101 Q
b10100101100 R
b11010011101 Z
1\
#2520000
0!
#2525000
1!
0%
b1101001110100 Q
b101001011 R
b1 T
b1101001110100 Z
b11111111111111111110010110001100 [
#2530000
0!
#2535000
1!
0%
b11111111111111111110010110001100 P
b110100111010000 Q
b1010010 R
1S
b10 T
b110100111010000 Z
b11111111111111111001011000110000 [
#2540000
0!
#2545000
1!
0%
b11111111111111110111101110111100 P
b11010011101000000 Q
b10100 R
b11 T
b11010011101000000 Z
b11010011101000000 [
#2550000
0!
#2555000
1!
0%
b10010001011111100 P
b1101001110100000000 Q
b101 R
0S
b100 T
b1101001110100000000 Z
b1101001110100000000 [
#2560000
0!
#2565000
1!
0%
b1111011111111111100 P
b110100111010000000000 Q
b1 R
b101 T
b110100111010000000000 Z
b110100111010000000000 [
#2570000
0!
#2575000
1!
0%
b11 O
b1000100011001111111100 P
b11010011101000000000000 Q
b0 R
b110 T
b11010011101000000000000 Z
b0 [
0\
#2580000
0!
#2585000
1!
0%
b1000100011001111111100 8
19
1:
0;
1<
b1000110 =
b1101 >
b0 O
1b
b1101 c
b111 d
b1111 e
#2590000
0!
#2595000
1!
0%
0:
1B
1C
b111010001000110 D
#2600000
0!
#2605000
1!
1$
1%
b111010001000110 *
0B
#2610000
0!
#2615000
1!
0%
#2620000
0!
#2625000
1!
1#
0%
b101101011100110 (
b11111110000010 )
#2630000
0!
#2635000
1!
0#
0%
b101101011100110 +
b11111110000010 ,
1/
11
02
b110 3
b1111 4
b1011100110 5
b1110000010 6
b1111 >
1?
1H
b1011100110 J
b1110000010 K
1L
0M
b11111111111 W
b11011100110 X
b11110000010 Y
b110 `
b1111 a
b1111 c
b111 d
b1111 e
#2640000
0!
#2645000
1!
0%
0/
1;
0C
0H
b1 O
b0 T
#2650000
0!
#2655000
1!
0$
0%
b10 O
b0 P
b11011100110 Q
b11110000010 R
b11011100110 Z
b11111111111111111111001000110100 [
1\
#2660000
0!
#2665000
1!
0%
b11111111111111111111001000110100 P
b1101110011000 Q
b111100000 R
1S
b1 T
b1101110011000 Z
b1101110011000 [
#2670000
0!
#2675000
1!
0%
b110111001100 P
b110111001100000 Q
b1111000 R
0S
b10 T
b110111001100000 Z
b0 [
#2680000
0!
#2685000
1!
0%
b11011100110000000 Q
b11110 R
b11 T
b11011100110000000 Z
b11111111111111001000110100000000 [
#2690000
0!
#2695000
1!
0%
b11111111111111001001101011001100 P
b1101110011000000000 Q
b111 R
1S
b100 T
b1101110011000000000 Z
b0 [
#2700000
0!
#2705000
1!
0%
b110111001100000000000 Q
b1 R
b101 T
b110111001100000000000 Z
b1101110011000000000000 [
#2710000
0!
#2715000
1!
0%
b11 O
b1100111100101011001100 P
b11011100110000000000000 Q
b0 R
0S
b110 T
b11011100110000000000000 Z
b0 [
0\
#2720000
0!
#2725000
1!
0%
b1100111100101011001100 8
1:
0;
b1001111001 =
b0 O
#2730000
0!
#2735000
1!
0%
0:
1B
1C
b111110000000000 D
#2740000
0!
#2745000
1!
1$
1%
b111110000000000 *
0B
#2750000
0!
#2755000
1!
0%
#2760000
0!
#2765000
1!
1#
0%
b11111111000100 (
b1011101111 )
#2770000
0!
#2775000
1!
0#
0%
b11111111000100 +
b1011101111 ,
1/
01
b1111 3
b0 4
b1111000100 5
b1011101111 6
b1001 >
0?
1H
b1111000100 J
b1011101111 K
0L
b11111111111 W
b11111000100 X
b11011101111 Y
b1111 `
b0 a
b1001 c
b111 d
b1111 e
#2780000
0!
#2785000
1!
0%
0/
1;
0C
0H
b1 O
b0 T
0V
#2790000
0!
#2795000
1!
0$
0%
b10 O
b0 P
b11111000100 Q
b11011101111 R
b11111000100 Z
b11111111111111111111100000111100 [
1\
#2800000
0!
#2805000
1!
0%
b11111111111111111111100000111100 P
b1111100010000 Q
b110111011 R
1S
b1 T
b1111100010000 Z
b0 [
#2810000
0!
#2815000
1!
0%
b111110001000000 Q
b1101110 R
b10 T
b111110001000000 Z
b11111111111111111000001111000000 [
#2820000
0!
#2825000
1!
0%
b11111111111111110111101111111100 P
b11111000100000000 Q
b11011 R
b11 T
b11111000100000000 Z
b0 [
#2830000
0!
#2835000
1!
0%
b1111100010000000000 Q
b110 R
b100 T
b1111100010000000000 Z
b11111111111110000011110000000000 [
#2840000
0!
#2845000
1!
0%
b11111111111101111011011111111100 P
b111110001000000000000 Q
b1 R
b101 T
b111110001000000000000 Z
b1111100010000000000000 [
#2850000
0!
#2855000
1!
0%
b11 O
b1101011101011111111100 P
b11111000100000000000000 Q
b0 R
0S
b110 T
b11111000100000000000000 Z
b0 [
0\
#2860000
0!
#2865000
1!
0%
b1101011101011111111100 8
09
1:
0;
b1010111010 =
b0 O
#2870000
0!
#2875000
1!
0%
0:
1B
1C
b10011010111010 D
#2880000
0!
#2885000
1!
1$
1%
b10011010111010 *
0B
#2890000
0!
#2895000
1!
0%
#2900000
0!
#2905000
1!
1#
0%
b101011011010101 (
b101011001100001 )
#2910000
0!
#2915000
1!
0#
0%
b101011011010101 +
b101011001100001 ,
1/
11
12
b101 3
b101 4
b1011010101 5
b1001100001 6
b100 >
1H
b1011010101 J
b1001100001 K
1L
1M
b11111111111 W
b11011010101 X
b11001100001 Y
b101 `
b101 a
b100 c
b111 d
b1111 e
#2920000
0!
#2925000
1!
0%
0/
1;
0C
0H
b1 O
b0 T
#2930000
0!
#2935000
1!
0$
0%
b10 O
b0 P
b11011010101 Q
b11001100001 R
b11011010101 Z
b11011010101 [
1\
#2940000
0!
#2945000
1!
0%
b11011010101 P
b1101101010100 Q
b110011000 R
b1 T
b1101101010100 Z
b0 [
#2950000
0!
#2955000
1!
0%
b110110101010000 Q
b1100110 R
b10 T
b110110101010000 Z
b11111111111111110010010101100000 [
#2960000
0!
#2965000
1!
0%
b11111111111111110010110000110101 P
b11011010101000000 Q
b11001 R
1S
b11 T
b11011010101000000 Z
b110110101010000000 [
#2970000
0!
#2975000
1!
0%
b101001011010110101 P
b1101101010100000000 Q
b110 R
0S
b100 T
b1101101010100000000 Z
b11111111111100100101011000000000 [
#2980000
0!
#2985000
1!
0%
b11111111111101001110110010110101 P
b110110101010000000000 Q
b1 R
1S
b101 T
b110110101010000000000 Z
b1101101010100000000000 [
#2990000
0!
#2995000
1!
0%
b11 O
b1010111001010010110101 P
b11011010101000000000000 Q
b0 R
0S
b110 T
b11011010101000000000000 Z
b0 [
0\
#3000000
0!
#3005000
1!
0%
b1010111001010010110101 8
1:
0;
b101110010 =
b0 O
#3010000
0!
