AlexNet_config1/vcd/fp_16_8.vcd
$date
   Wed Apr  8 00:34:57 2026
$end
$version
  2019.2
$end
$timescale
  1ps
$end
$scope module tb_fp $end
$scope module dut $end
$var wire 1 ! clk $end
$var wire 1 " rst_n $end
$var wire 1 # start $end
$var reg 1 $ ready $end
$var reg 1 % valid $end
$var wire 5 & total_bits [4:0] $end
$var wire 4 ' exp_bits [3:0] $end
$var wire 16 ( A [15:0] $end
$var wire 16 ) B [15:0] $end
$var reg 16 * result [15:0] $end
$var reg 16 + A_ff [15:0] $end
$var reg 16 , B_ff [15:0] $end
$var reg 5 - total_bits_ff [4:0] $end
$var reg 4 . exp_bits_ff [3:0] $end
$var reg 1 / start_ff $end
$var reg 5 0 man_bits [4:0] $end
$var reg 1 1 sign_a $end
$var reg 1 2 sign_b $end
$var reg 8 3 exp_a [7:0] $end
$var reg 8 4 exp_b [7:0] $end
$var reg 14 5 man_a [13:0] $end
$var reg 14 6 man_b [13:0] $end
$var reg 4 7 mult_precision [3:0] $end
$var reg 28 8 mult_result [27:0] $end
$var reg 1 9 mult_result_sign $end
$var reg 1 : mult_done $end
$var reg 1 ; mult_busy $end
$var reg 1 < overflow $end
$var reg 14 = normalized_man [13:0] $end
$var reg 8 > final_exp [7:0] $end
$var reg 1 ? is_infinity $end
$var reg 1 @ is_zero $end
$var reg 1 A is_input_zero $end
$var reg 1 B valid_pre $end
$var reg 1 C ready_pre $end
$var reg 16 D result_pre [15:0] $end
$var parameter 32 E MAX_TOTAL_BITS [31:0] $end
$var parameter 32 F MAX_EXP_BITS [31:0] $end
$var parameter 32 G MAX_MAN_BITS [31:0] $end
$scope module mantissa_core $end
$var wire 1 ! clk $end
$var wire 1 " rst_n $end
$var wire 1 H start $end
$var wire 4 I precision [3:0] $end
$var wire 14 J A [13:0] $end
$var wire 14 K B [13:0] $end
$var wire 1 L sign_a $end
$var wire 1 M sign_b $end
$var wire 1 N is_float $end
$var reg 28 8 result [27:0] $end
$var reg 1 9 result_sign $end
$var reg 1 : done $end
$var reg 1 ; busy $end
$var reg 2 O state [1:0] $end
$var reg 32 P acc [31:0] $end
$var reg 32 Q mcd_r [31:0] $end
$var reg 15 R mpr_r [14:0] $end
$var reg 1 S prev_b $end
$var reg 4 T cyc [3:0] $end
$var reg 4 U max_cyc [3:0] $end
$var reg 1 V sign_r $end
$var reg 14 W prec_mask [13:0] $end
$var reg 14 X a_proc [13:0] $end
$var reg 14 Y b_proc [13:0] $end
$var reg 32 Z mcd_s [31:0] $end
$var reg 32 [ booth_pp [31:0] $end
$var reg 1 \ clk_en $end
$var parameter 0 ] MAX_MAN_BITS $end
$var parameter 0 ^ ACC_W $end
$upscope $end
$scope module exp_core $end
$var wire 4 _ exp_bits [3:0] $end
$var wire 8 ` exp_a [7:0] $end
$var wire 8 a exp_b [7:0] $end
$var wire 1 b norm_shift $end
$var reg 8 > final_exp [7:0] $end
$var reg 1 ? is_infinity $end
$var reg 1 @ is_zero $end
$var reg 11 c calc_exp [10:0] $end
$var reg 11 d bias [10:0] $end
$var reg 11 e max_exp_val [10:0] $end
$var parameter 32 f MAX_EXP_BITS [31:0] $end
$upscope $end
$upscope $end
$upscope $end
$enddefinitions $end
#0
$dumpvars
0!
1"
0#
1$
1%
b10000 &
b1000 '
b1011100111100 (
b101000111000111 )
b10100110010010 *
b1011100111100 +
b101000111000111 ,
b10000 -
b1000 .
0/
b111 0
01
02
b101110 3
b10100011 4
b111100 5
b1000111 6
b1000 7
b1001001000100100 8
09
0:
0;
1<
b10010 =
b1010011 >
0?
0@
0A
0B
1C
b10100110010010 D
b10000 E
b1000 F
b1110 G
0H
b1000 I
b111100 J
b1000111 K
0L
0M
1N
b0 O
b1001001000100100 P
b101111000000000000 Q
b0 R
0S
b101 T
b101 U
0V
b11111111 W
b10111100 X
b11000111 Y
b101111000000000000 Z
b0 [
0\
b1110 ]
b100000 ^
b1000 _
b101110 `
b10100011 a
1b
b1010011 c
b1111111 d
b11111111 e
b1000 f
$end
#1005000
1!
0%
#1010000
0!
#1015000
1!
1#
0%
b101110101011011 (
b11111110011000 )
#1020000
0!
#1025000
1!
0#
0%
b101110101011011 +
b11111110011000 ,
1/
b10111010 3
b1111111 4
b1011011 5
b11000 6
b10111011 >
1H
b1011011 J
b11000 K
b11111111 W
b11011011 X
b10011000 Y
b10111010 `
b1111111 a
b10111011 c
b1111111 d
b11111111 e
#1030000
0!
#1035000
1!
0%
0/
1;
0C
0H
b1 O
b0 T
#1040000
0!
#1045000
1!
0$
0%
b10 O
b0 P
b11011011 Q
b10011000 R
b11011011 Z
1\
#1050000
0!
#1055000
1!
0%
b1101101100 Q
b100110 R
b1 T
b1101101100 Z
b11111111111111111111100100101000 [
#1060000
0!
#1065000
1!
0%
b11111111111111111111100100101000 P
b110110110000 Q
b1001 R
1S
b10 T
b110110110000 Z
b1101101100000 [
#1070000
0!
#1075000
1!
0%
b1010010001000 P
b11011011000000 Q
b10 R
0S
b11 T
b11011011000000 Z
b11111111111111111001001010000000 [
#1080000
0!
#1085000
1!
0%
b11111111111111111010011100001000 P
b1101101100000000 Q
b0 R
1S
b100 T
b1101101100000000 Z
b1101101100000000 [
#1090000
0!
#1095000
1!
0%
b11 O
b1000001000001000 P
b110110110000000000 Q
0S
b101 T
b110110110000000000 Z
b0 [
0\
#1100000
0!
#1105000
1!
0%
b1000001000001000 8
1:
0;
b10 =
b0 O
#1110000
0!
#1115000
1!
0%
0:
1B
1C
b101110110000010 D
#1120000
0!
#1125000
1!
1$
1%
b101110110000010 *
0B
#1130000
0!
#1135000
1!
0%
#1140000
0!
#1145000
1!
1#
0%
b111111001010000 (
b100011001000 )
#1150000
0!
#1155000
1!
0#
0%
b111111001010000 +
b100011001000 ,
1/
b11111100 3
b10001 4
b1010000 5
b1001000 6
b10001111 >
1H
b1010000 J
b1001000 K
b11111111 W
b11010000 X
b11001000 Y
b11111100 `
b10001 a
b10001111 c
b1111111 d
b11111111 e
#1160000
0!
#1165000
1!
0%
0/
1;
0C
0H
b1 O
b0 T
#1170000
0!
#1175000
1!
0$
0%
b10 O
b0 P
b11010000 Q
b11001000 R
b11010000 Z
1\
#1180000
0!
#1185000
1!
0%
b1101000000 Q
b110010 R
b1 T
b1101000000 Z
b11111111111111111111100110000000 [
#1190000
0!
#1195000
1!
0%
b11111111111111111111100110000000 P
b110100000000 Q
b1100 R
1S
b10 T
b110100000000 Z
b110100000000 [
#1200000
0!
#1205000
1!
0%
b11010000000 P
b11010000000000 Q
b11 R
0S
b11 T
b11010000000000 Z
b11111111111111111100110000000000 [
#1210000
0!
#1215000
1!
0%
b11111111111111111101001010000000 P
b1101000000000000 Q
b0 R
1S
b100 T
b1101000000000000 Z
b1101000000000000 [
#1220000
0!
#1225000
1!
0%
b11 O
b1010001010000000 P
b110100000000000000 Q
0S
b101 T
b110100000000000000 Z
b0 [
0\
#1230000
0!
#1235000
1!
0%
b1010001010000000 8
1:
0;
b100010 =
b0 O
#1240000
0!
#1245000
1!
0%
0:
1B
1C
b100011110100010 D
#1250000
0!
#1255000
1!
1$
1%
b100011110100010 *
0B
#1260000
0!
#1265000
1!
0%
#1270000
0!
#1275000
1!
1#
0%
b111101010001 (
b1001010110001101 )
#1280000
0!
#1285000
1!
0#
0%
b111101010001 +
b1001010110001101 ,
1/
12
b11110 3
b101011 4
b1010001 5
b1101 6
b0 >
1@
1H
b1010001 J
b1101 K
1M
b11111111 W
b11010001 X
b10001101 Y
b11110 `
b101011 a
b11111001011 c
b1111111 d
b11111111 e
#1290000
0!
#1295000
1!
0%
0/
1;
0C
0H
b1 O
b0 T
1V
#1300000
0!
#1305000
1!
0$
0%
b10 O
b0 P
b11010001 Q
b10001101 R
b11010001 Z
b11010001 [
1\
#1310000
0!
#1315000
1!
0%
b11010001 P
b1101000100 Q
b100011 R
b1 T
b1101000100 Z
b11111111111111111111110010111100 [
#1320000
0!
#1325000
1!
0%
b11111111111111111111110110001101 P
b110100010000 Q
b1000 R
1S
b10 T
b110100010000 Z
b110100010000 [
#1330000
0!
#1335000
1!
0%
b101010011101 P
b11010001000000 Q
b10 R
0S
b11 T
b11010001000000 Z
b11111111111111111001011110000000 [
#1340000
0!
#1345000
1!
0%
b11111111111111111010001000011101 P
b1101000100000000 Q
b0 R
1S
b100 T
b1101000100000000 Z
b1101000100000000 [
#1350000
0!
#1355000
1!
0%
b11 O
b111001100011101 P
b110100010000000000 Q
0S
b101 T
b110100010000000000 Z
b0 [
0\
#1360000
0!
#1365000
1!
0%
b111001100011101 8
19
1:
0;
0<
b1100110 =
b0 O
0b
b11111001010 c
b1111111 d
b11111111 e
#1370000
0!
#1375000
1!
0%
0:
1B
1C
b0 D
#1380000
0!
#1385000
1!
1$
1%
b0 *
0B
#1390000
0!
#1395000
1!
0%
#1400000
0!
#1405000
1!
1#
0%
b101101010010000 (
b110110010101100 )
#1410000
0!
#1415000
1!
0#
0%
b101101010010000 +
b110110010101100 ,
1/
02
b10110101 3
b11011001 4
b10000 5
b101100 6
b11111111 >
1?
0@
1H
b10000 J
b101100 K
0M
b11111111 W
b10010000 X
b10101100 Y
b10110101 `
b11011001 a
b100001111 c
b1111111 d
b11111111 e
#1420000
0!
#1425000
1!
0%
0/
1;
0C
0H
b1 O
b0 T
0V
#1430000
0!
#1435000
1!
0$
0%
b10 O
b0 P
b10010000 Q
b10101100 R
b10010000 Z
1\
#1440000
0!
#1445000
1!
0%
b1001000000 Q
b101011 R
b1 T
b1001000000 Z
b11111111111111111111110111000000 [
#1450000
0!
#1455000
1!
0%
b11111111111111111111110111000000 P
b100100000000 Q
b1010 R
1S
b10 T
b100100000000 Z
b11111111111111111111011100000000 [
#1460000
0!
#1465000
1!
0%
b11111111111111111111010011000000 P
b10010000000000 Q
b10 R
b11 T
b10010000000000 Z
b11111111111111111101110000000000 [
#1470000
0!
#1475000
1!
0%
b11111111111111111101000011000000 P
b1001000000000000 Q
b0 R
b100 T
b1001000000000000 Z
b1001000000000000 [
#1480000
0!
#1485000
1!
0%
b11 O
b110000011000000 P
b100100000000000000 Q
0S
b101 T
b100100000000000000 Z
b0 [
0\
#1490000
0!
#1495000
1!
0%
b110000011000000 8
09
1:
0;
b1000001 =
b0 O
#1500000
0!
#1505000
1!
0%
0:
1B
1C
b111111110000000 D
#1510000
0!
#1515000
1!
1$
1%
b111111110000000 *
0B
#1520000
0!
#1525000
1!
0%
#1530000
0!
#1535000
1!
1#
0%
b1101010100100101 (
b1101100011100000 )
#1540000
0!
#1545000
1!
0#
0%
b1101010100100101 +
b1101100011100000 ,
1/
11
12
b10101010 3
b10110001 4
b100101 5
b1100000 6
b11011100 >
0?
1H
b100101 J
b1100000 K
1L
1M
b11111111 W
b10100101 X
b11100000 Y
b10101010 `
b10110001 a
b11011100 c
b1111111 d
b11111111 e
#1550000
0!
#1555000
1!
0%
0/
1;
0C
0H
b1 O
b0 T
#1560000
0!
#1565000
1!
0$
0%
b10 O
b0 P
b10100101 Q
b11100000 R
b10100101 Z
1\
#1570000
0!
#1575000
1!
0%
b1010010100 Q
b111000 R
b1 T
b1010010100 Z
#1580000
0!
#1585000
1!
0%
b101001010000 Q
b1110 R
b10 T
b101001010000 Z
b11111111111111111110101101100000 [
#1590000
0!
#1595000
1!
0%
b11111111111111111110101101100000 P
b10100101000000 Q
b11 R
1S
b11 T
b10100101000000 Z
b0 [
#1600000
0!
#1605000
1!
0%
b1010010100000000 Q
b0 R
b100 T
b1010010100000000 Z
b1010010100000000 [
#1610000
0!
#1615000
1!
0%
b11 O
b1001000001100000 P
b101001010000000000 Q
0S
b101 T
b101001010000000000 Z
b0 [
0\
#1620000
0!
#1625000
1!
0%
b1001000001100000 8
1:
0;
1<
b10000 =
b11011101 >
b0 O
1b
b11011101 c
b1111111 d
b11111111 e
#1630000
0!
#1635000
1!
0%
0:
1B
1C
b110111010010000 D
#1640000
0!
#1645000
1!
1$
1%
b110111010010000 *
0B
#1650000
0!
#1655000
1!
0%
#1660000
0!
#1665000
1!
1#
0%
b111010101110101 (
b1110010001110110 )
#1670000
0!
#1675000
1!
0#
0%
b111010101110101 +
b1110010001110110 ,
1/
01
b11101010 3
b11001000 4
b1110101 5
b1110110 6
b11111111 >
1?
1H
b1110101 J
b1110110 K
0L
b11111111 W
b11110101 X
b11110110 Y
b11101010 `
b11001000 a
b100110100 c
b1111111 d
b11111111 e
#1680000
0!
#1685000
1!
0%
0/
1;
0C
0H
b1 O
b0 T
1V
#1690000
0!
#1695000
1!
0$
0%
b10 O
b0 P
b11110101 Q
b11110110 R
b11110101 Z
b11111111111111111111111000010110 [
1\
#1700000
0!
#1705000
1!
0%
b11111111111111111111111000010110 P
b1111010100 Q
b111101 R
1S
b1 T
b1111010100 Z
b11110101000 [
#1710000
0!
#1715000
1!
0%
b10110111110 P
b111101010000 Q
b1111 R
0S
b10 T
b111101010000 Z
b11111111111111111111000010110000 [
#1720000
0!
#1725000
1!
0%
b11111111111111111111011001101110 P
b11110101000000 Q
b11 R
1S
b11 T
b11110101000000 Z
b0 [
#1730000
0!
#1735000
1!
0%
b1111010100000000 Q
b0 R
b100 T
b1111010100000000 Z
b1111010100000000 [
#1740000
0!
#1745000
1!
0%
b11 O
b1110101101101110 P
b111101010000000000 Q
0S
b101 T
b111101010000000000 Z
b0 [
0\
#1750000
0!
#1755000
1!
0%
b1110101101101110 8
19
1:
0;
b1101011 =
b0 O
#1760000
0!
#1765000
1!
0%
0:
1B
1C
b1111111110000000 D
#1770000
0!
#1775000
1!
1$
1%
b1111111110000000 *
0B
#1780000
0!
#1785000
1!
0%
#1790000
0!
#1795000
1!
1#
0%
b110111001101101 (
b1101000000000101 )
#1800000
0!
#1805000
1!
0#
0%
b110111001101101 +
b1101000000000101 ,
1/
b11011100 3
b10100000 4
b1101101 5
b101 6
b11111110 >
0?
1H
b1101101 J
b101 K
b11111111 W
b11101101 X
b10000101 Y
b11011100 `
b10100000 a
b11111110 c
b1111111 d
b11111111 e
#1810000
0!
#1815000
1!
0%
0/
1;
0C
0H
b1 O
b0 T
#1820000
0!
#1825000
1!
0$
0%
b10 O
b0 P
b11101101 Q
b10000101 R
b11101101 Z
b11101101 [
1\
#1830000
0!
#1835000
1!
0%
b11101101 P
b1110110100 Q
b100001 R
b1 T
b1110110100 Z
b1110110100 [
#1840000
0!
#1845000
1!
0%
b10010100001 P
b111011010000 Q
b1000 R
b10 T
b111011010000 Z
b0 [
#1850000
0!
#1855000
1!
0%
b11101101000000 Q
b10 R
b11 T
b11101101000000 Z
b11111111111111111000100110000000 [
#1860000
0!
#1865000
1!
0%
b11111111111111111000111000100001 P
b1110110100000000 Q
b0 R
1S
b100 T
b1110110100000000 Z
b1110110100000000 [
#1870000
0!
#1875000
1!
0%
b11 O
b111101100100001 P
b111011010000000000 Q
0S
b101 T
b111011010000000000 Z
b0 [
0\
#1880000
0!
#1885000
1!
0%
b111101100100001 8
1:
0;
0<
b1110110 =
b11111101 >
b0 O
0b
b11111101 c
b1111111 d
b11111111 e
#1890000
0!
#1895000
1!
0%
0:
1B
1C
b1111111011110110 D
#1900000
0!
#1905000
1!
1$
1%
b1111111011110110 *
0B
#1910000
0!
#1915000
1!
0%
#1920000
0!
#1925000
1!
1#
0%
b101000100100011 (
b100001110010011 )
#1930000
0!
#1935000
1!
0#
0%
b101000100100011 +
b100001110010011 ,
1/
02
b10100010 3
b10000111 4
b100011 5
b10011 6
b10101010 >
1H
b100011 J
b10011 K
0M
b11111111 W
b10100011 X
b10010011 Y
b10100010 `
b10000111 a
b10101010 c
b1111111 d
b11111111 e
#1940000
0!
#1945000
1!
0%
0/
1;
0C
0H
b1 O
b0 T
0V
#1950000
0!
#1955000
1!
0$
0%
b10 O
b0 P
b10100011 Q
b10010011 R
b10100011 Z
b11111111111111111111111101011101 [
1\
#1960000
0!
#1965000
1!
0%
b11111111111111111111111101011101 P
b1010001100 Q
b100100 R
1S
b1 T
b1010001100 Z
b1010001100 [
#1970000
0!
#1975000
1!
0%
b111101001 P
b101000110000 Q
b1001 R
0S
b10 T
b101000110000 Z
b101000110000 [
#1980000
0!
#1985000
1!
0%
b110000011001 P
b10100011000000 Q
b10 R
b11 T
b10100011000000 Z
b11111111111111111010111010000000 [
#1990000
0!
#1995000
1!
0%
b11111111111111111011101010011001 P
b1010001100000000 Q
b0 R
1S
b100 T
b1010001100000000 Z
b1010001100000000 [
#2000000
0!
#2005000
1!
0%
b11 O
b101110110011001 P
b101000110000000000 Q
0S
b101 T
b101000110000000000 Z
b0 [
0\
#2010000
0!
#2015000
1!
0%
b101110110011001 8
09
1:
0;
b111011 =
b0 O
#2020000
0!
#2025000
1!
0%
0:
1B
1C
b101010100111011 D
#2030000
0!
#2035000
1!
1$
1%
b101010100111011 *
0B
#2040000
0!
#2045000
1!
0%
#2050000
0!
#2055000
1!
1#
0%
b1010100011100101 (
b1100011010011000 )
#2060000
0!
#2065000
1!
0#
0%
b1010100011100101 +
b1100011010011000 ,
1/
11
12
b1010001 3
b10001101 4
b1100101 5
b11000 6
b1011111 >
1H
b1100101 J
b11000 K
1L
1M
b11111111 W
b11100101 X
b10011000 Y
b1010001 `
b10001101 a
b1011111 c
b1111111 d
b11111111 e
#2070000
0!
#2075000
1!
0%
0/
1;
0C
0H
b1 O
b0 T
#2080000
0!
#2085000
1!
0$
0%
b10 O
b0 P
b11100101 Q
b10011000 R
b11100101 Z
1\
#2090000
0!
#2095000
1!
0%
b1110010100 Q
b100110 R
b1 T
b1110010100 Z
b11111111111111111111100011011000 [
#2100000
0!
#2105000
1!
0%
b11111111111111111111100011011000 P
b111001010000 Q
b1001 R
1S
b10 T
b111001010000 Z
b1110010100000 [
#2110000
0!
#2115000
1!
0%
b1010101111000 P
b11100101000000 Q
b10 R
0S
b11 T
b11100101000000 Z
b11111111111111111000110110000000 [
#2120000
0!
#2125000
1!
0%
b11111111111111111010001011111000 P
b1110010100000000 Q
b0 R
1S
b100 T
b1110010100000000 Z
b1110010100000000 [
#2130000
0!
#2135000
1!
0%
b11 O
b1000011111111000 P
b111001010000000000 Q
0S
b101 T
b111001010000000000 Z
b0 [
0\
#2140000
0!
#2145000
1!
0%
b1000011111111000 8
1:
0;
1<
b111 =
b1100000 >
b0 O
1b
b1100000 c
b1111111 d
b11111111 e
#2150000
0!
#2155000
1!
0%
0:
1B
1C
b11000000000111 D
#2160000
0!
#2165000
1!
1$
1%
b11000000000111 *
0B
#2170000
0!
#2175000
1!
0%
#2180000
0!
#2185000
1!
1#
0%
b10100000001001 (
b1011101010011 )
#2190000
0!
#2195000
1!
0#
0%
b10100000001001 +
b1011101010011 ,
1/
01
02
b1010000 3
b101110 4
b1001 5
b1010011 6
b0 >
1@
1H
b1001 J
b1010011 K
0L
0M
b11111111 W
b10001001 X
b11010011 Y
b1010000 `
b101110 a
b0 c
b1111111 d
b11111111 e
#2200000
0!
#2205000
1!
0%
0/
1;
0C
0H
b1 O
b0 T
#2210000
0!
#2215000
1!
0$
0%
b10 O
b0 P
b10001001 Q
b11010011 R
b10001001 Z
b11111111111111111111111101110111 [
1\
#2220000
0!
#2225000
1!
0%
b11111111111111111111111101110111 P
b1000100100 Q
b110100 R
1S
b1 T
b1000100100 Z
b1000100100 [
#2230000
0!
#2235000
1!
0%
b110011011 P
b100010010000 Q
b1101 R
0S
b10 T
b100010010000 Z
b100010010000 [
#2240000
0!
#2245000
1!
0%
b101000101011 P
b10001001000000 Q
b11 R
b11 T
b10001001000000 Z
b11111111111111111101110111000000 [
#2250000
0!
#2255000
1!
0%
b11111111111111111110011111101011 P
b1000100100000000 Q
b0 R
1S
b100 T
b1000100100000000 Z
b1000100100000000 [
#2260000
0!
#2265000
1!
0%
b11 O
b111000011101011 P
b100010010000000000 Q
0S
b101 T
b100010010000000000 Z
b0 [
0\
#2270000
0!
#2275000
1!
0%
b111000011101011 8
1:
0;
0<
b1100001 =
b0 O
0b
b11111111111 c
b1111111 d
b11111111 e
#2280000
0!
#2285000
1!
0%
0:
1B
1C
b0 D
#2290000
0!
#2295000
1!
1$
1%
b0 *
0B
#2300000
0!
#2305000
1!
0%
#2310000
0!
#2315000
1!
1#
0%
b1001011010011101 (
b111100100101100 )
#2320000
0!
#2325000
1!
0#
0%
b1001011010011101 +
b111100100101100 ,
1/
11
b101101 3
b11110010 4
b11101 5
b101100 6
b10100000 >
0@
1H
b11101 J
b101100 K
1L
b11111111 W
b10011101 X
b10101100 Y
b101101 `
b11110010 a
b10100000 c
b1111111 d
b11111111 e
#2330000
0!
#2335000
1!
0%
0/
1;
0C
0H
b1 O
b0 T
1V
#2340000
0!
#2345000
1!
0$
0%
b10 O
b0 P
b10011101 Q
b10101100 R
b10011101 Z
1\
#2350000
0!
#2355000
1!
0%
b1001110100 Q
b101011 R
b1 T
b1001110100 Z
b11111111111111111111110110001100 [
#2360000
0!
#2365000
1!
0%
b11111111111111111111110110001100 P
b100111010000 Q
b1010 R
1S
b10 T
b100111010000 Z
b11111111111111111111011000110000 [
#2370000
0!
#2375000
1!
0%
b11111111111111111111001110111100 P
b10011101000000 Q
b10 R
b11 T
b10011101000000 Z
b11111111111111111101100011000000 [
#2380000
0!
#2385000
1!
0%
b11111111111111111100110001111100 P
b1001110100000000 Q
b0 R
b100 T
b1001110100000000 Z
b1001110100000000 [
#2390000
0!
#2395000
1!
0%
b11 O
b110100101111100 P
b100111010000000000 Q
0S
b101 T
b100111010000000000 Z
b0 [
0\
#2400000
0!
#2405000
1!
0%
b110100101111100 8
19
1:
0;
b1010010 =
b0 O
#2410000
0!
#2415000
1!
0%
0:
1B
1C
b1101000001010010 D
#2420000
0!
#2425000
1!
1$
1%
b1101000001010010 *
0B
#2430000
0!
#2435000
1!
0%
#2440000
0!
#2445000
1!
1#
0%
b101101011100110 (
b11111110000010 )
#2450000
0!
#2455000
1!
0#
0%
b101101011100110 +
b11111110000010 ,
1/
01
b10110101 3
b1111111 4
b1100110 5
b10 6
b10110101 >
1H
b1100110 J
b10 K
0L
b11111111 W
b11100110 X
b10000010 Y
b10110101 `
b1111111 a
b10110101 c
b1111111 d
b11111111 e
#2460000
0!
#2465000
1!
0%
0/
1;
0C
0H
b1 O
b0 T
0V
#2470000
0!
#2475000
1!
0$
0%
b10 O
b0 P
b11100110 Q
b10000010 R
b11100110 Z
b11111111111111111111111000110100 [
1\
#2480000
0!
#2485000
1!
0%
b11111111111111111111111000110100 P
b1110011000 Q
b100000 R
1S
b1 T
b1110011000 Z
b1110011000 [
#2490000
0!
#2495000
1!
0%
b111001100 P
b111001100000 Q
b1000 R
0S
b10 T
b111001100000 Z
b0 [
#2500000
0!
#2505000
1!
0%
b11100110000000 Q
b10 R
b11 T
b11100110000000 Z
b11111111111111111000110100000000 [
#2510000
0!
#2515000
1!
0%
b11111111111111111000111011001100 P
b1110011000000000 Q
b0 R
1S
b100 T
b1110011000000000 Z
b1110011000000000 [
#2520000
0!
#2525000
1!
0%
b11 O
b111010011001100 P
b111001100000000000 Q
0S
b101 T
b111001100000000000 Z
b0 [
0\
#2530000
0!
#2535000
1!
0%
b111010011001100 8
09
1:
0;
b1101001 =
b0 O
#2540000
0!
#2545000
1!
0%
0:
1B
1C
b101101011101001 D
#2550000
0!
#2555000
1!
1$
1%
b101101011101001 *
0B
#2560000
0!
#2565000
1!
0%
#2570000
0!
#2575000
1!
1#
0%
b11111111000100 (
b1000001011101111 )
#2580000
0!
#2585000
1!
0#
0%
b11111111000100 +
b1000001011101111 ,
1/
12
b1111111 3
b101 4
b1000100 5
b1101111 6
b101 >
1H
b1000100 J
b1101111 K
1M
b11111111 W
b11000100 X
b11101111 Y
b1111111 `
b101 a
b101 c
b1111111 d
b11111111 e
#2590000
0!
#2595000
1!
0%
0/
1;
0C
0H
b1 O
b0 T
1V
#2600000
0!
#2605000
1!
0$
0%
b10 O
b0 P
b11000100 Q
b11101111 R
b11000100 Z
b11111111111111111111111100111100 [
1\
#2610000
0!
#2615000
1!
0%
b11111111111111111111111100111100 P
b1100010000 Q
b111011 R
1S
b1 T
b1100010000 Z
b0 [
#2620000
0!
#2625000
1!
0%
b110001000000 Q
b1110 R
b10 T
b110001000000 Z
b11111111111111111111001111000000 [
#2630000
0!
#2635000
1!
0%
b11111111111111111111001011111100 P
b11000100000000 Q
b11 R
b11 T
b11000100000000 Z
b0 [
#2640000
0!
#2645000
1!
0%
b1100010000000000 Q
b0 R
b100 T
b1100010000000000 Z
b1100010000000000 [
#2650000
0!
#2655000
1!
0%
b11 O
b1011011011111100 P
b110001000000000000 Q
0S
b101 T
b110001000000000000 Z
b0 [
0\
#2660000
0!
#2665000
1!
0%
b1011011011111100 8
19
1:
0;
1<
b110110 =
b110 >
b0 O
1b
b110 c
b1111111 d
b11111111 e
#2670000
0!
#2675000
1!
0%
0:
1B
1C
b1000001100110110 D
#2680000
0!
#2685000
1!
1$
1%
b1000001100110110 *
0B
#2690000
0!
#2695000
1!
0%
#2700000
0!
#2705000
1!
1#
0%
b101011011010101 (
b1101011001100001 )
#2710000
0!
#2715000
1!
0#
0%
b101011011010101 +
b1101011001100001 ,
1/
b10101101 3
b10101100 4
b1010101 5
b1100001 6
b11011011 >
1H
b1010101 J
b1100001 K
b11111111 W
b11010101 X
b11100001 Y
b10101101 `
b10101100 a
b11011011 c
b1111111 d
b11111111 e
#2720000
0!
#2725000
1!
0%
0/
1;
0C
0H
b1 O
b0 T
#2730000
0!
#2735000
1!
0$
0%
b10 O
b0 P
b11010101 Q
b11100001 R
b11010101 Z
b11010101 [
1\
#2740000
0!
#2745000
1!
0%
b11010101 P
b1101010100 Q
b111000 R
b1 T
b1101010100 Z
b0 [
#2750000
0!
#2755000
1!
0%
b110101010000 Q
b1110 R
b10 T
b110101010000 Z
b11111111111111111110010101100000 [
#2760000
0!
#2765000
1!
0%
b11111111111111111110011000110101 P
b11010101000000 Q
b11 R
1S
b11 T
b11010101000000 Z
b0 [
#2770000
0!
#2775000
1!
0%
b1101010100000000 Q
b0 R
b100 T
b1101010100000000 Z
b1101010100000000 [
#2780000
0!
#2785000
1!
0%
b11 O
b1011101100110101 P
b110101010000000000 Q
0S
b101 T
b110101010000000000 Z
b0 [
0\
#2790000
0!
#2795000
1!
0%
b1011101100110101 8
1:
0;
b111011 =
b0 O
#2800000
0!
#2805000
1!
0%
0:
1B
1C
b1110110110111011 D
#2810000
0!
#2815000
1!
1$
1%
b1110110110111011 *
0B
#2820000
0!
#2825000
1!
0%
#2830000
0!
#2835000
1!
1#
0%
b1111110000011100 (
b1011000110111011 )
#2840000
0!
#2845000
1!
0#
0%
b1111110000011100 +
b1011000110111011 ,
1/
11
b11111000 3
b1100011 4
b11100 5
b111011 6
b11011101 >
1H
b11100 J
b111011 K
1L
b11111111 W
b10011100 X
b10111011 Y
b11111000 `
b1100011 a
b11011101 c
b1111111 d
b11111111 e
#2850000
0!
#2855000
1!
0%
0/
1;
0C
0H
b1 O
b0 T
0V
#2860000
0!
#2865000
1!
0$
0%
b10 O
b0 P
b10011100 Q
b10111011 R
b10011100 Z
b11111111111111111111111101100100 [
1\
#2870000
0!
#2875000
1!
0%
b11111111111111111111111101100100 P
b1001110000 Q
b101110 R
1S
b1 T
b1001110000 Z
b11111111111111111111110110010000 [
#2880000
0!
#2885000
1!
0%
b11111111111111111111110011110100 P
b100111000000 Q
b1011 R
b10 T
b100111000000 Z
b0 [
#2890000
0!
#2895000
1!
0%
b10011100000000 Q
b10 R
b11 T
b10011100000000 Z
b11111111111111111101100100000000 [
#2900000
0!
#2905000
1!
0%
b11111111111111111101010111110100 P
b1001110000000000 Q
b0 R
b100 T
b1001110000000000 Z
b1001110000000000 [
#2910000
0!
#2915000
1!
0%
b11 O
b111000111110100 P
b100111000000000000 Q
0S
b101 T
b100111000000000000 Z
b0 [
0\
#2920000
0!
#2925000
1!
0%
b111000111110100 8
09
1:
0;
0<
b1100011 =
b11011100 >
b0 O
0b
b11011100 c
b1111111 d
b11111111 e
#2930000
0!
#2935000
1!
0%
0:
1B
1C
b110111001100011 D
#2940000
0!
#2945000
1!
1$
1%
b110111001100011 *
0B
#2950000
0!
#2955000
1!
0%
#2960000
0!
#2965000
1!
1#
0%
b1010111100100 (
b11101111100000 )
#2970000
0!
#2975000
1!
0#
0%
b1010111100100 +
b11101111100000 ,
1/
01
02
b101011 3
b1110111 4
b1100100 5
b1100000 6
b100011 >
1H
b1100100 J
b1100000 K
0L
0M
b11111111 W
b11100100 X
b11100000 Y
b101011 `
b1110111 a
b100011 c
b1111111 d
b11111111 e
#2980000
0!
#2985000
1!
0%
0/
1;
0C
0H
b1 O
b0 T
#2990000
0!
#2995000
1!
0$
0%
b10 O
b0 P
b11100100 Q
b11100000 R
b11100100 Z
1\
#3000000
0!
#3005000
1!
0%
b1110010000 Q
b111000 R
b1 T
b1110010000 Z
#3010000
0!
#3015000
1!
0%
b111001000000 Q
b1110 R
b10 T
b111001000000 Z
b11111111111111111110001110000000 [
#3020000
0!
#3025000
1!
0%
b11111111111111111110001110000000 P
b11100100000000 Q
b11 R
1S
b11 T
b11100100000000 Z
b0 [
#3030000
0!
#3035000
1!
0%
b1110010000000000 Q
b0 R
b100 T
b1110010000000000 Z
b1110010000000000 [
#3040000
0!
#3045000
1!
0%
b11 O
b1100011110000000 P
b111001000000000000 Q
0S
b101 T
b111001000000000000 Z
b0 [
0\
#3050000
0!
#3055000
1!
0%
b1100011110000000 8
1:
0;
1<
b1000111 =
b100100 >
b0 O
1b
b100100 c
b1111111 d
b11111111 e
#3060000
0!
#3065000
1!
0%
0:
1B
1C
b1001001000111 D
#3070000
0!
#3075000
1!
1$
1%
b1001001000111 *
0B
#3080000
0!
#3085000
1!
0%
#3090000
0!
