AlexNet_config1/vcd/fp_7_4.vcd
$date
   Wed Apr  8 00:44:18 2026
$end
$version
  2019.2
$end
$timescale
  1ps
$end
$scope module tb_fp $end
$scope module dut $end
$var wire 1 ! clk $end
$var wire 1 " rst_n $end
$var wire 1 # start $end
$var reg 1 $ ready $end
$var reg 1 % valid $end
$var wire 5 & total_bits [4:0] $end
$var wire 4 ' exp_bits [3:0] $end
$var wire 16 ( A [15:0] $end
$var wire 16 ) B [15:0] $end
$var reg 16 * result [15:0] $end
$var reg 16 + A_ff [15:0] $end
$var reg 16 , B_ff [15:0] $end
$var reg 5 - total_bits_ff [4:0] $end
$var reg 4 . exp_bits_ff [3:0] $end
$var reg 1 / start_ff $end
$var reg 5 0 man_bits [4:0] $end
$var reg 1 1 sign_a $end
$var reg 1 2 sign_b $end
$var reg 8 3 exp_a [7:0] $end
$var reg 8 4 exp_b [7:0] $end
$var reg 14 5 man_a [13:0] $end
$var reg 14 6 man_b [13:0] $end
$var reg 4 7 mult_precision [3:0] $end
$var reg 28 8 mult_result [27:0] $end
$var reg 1 9 mult_result_sign $end
$var reg 1 : mult_done $end
$var reg 1 ; mult_busy $end
$var reg 1 < overflow $end
$var reg 14 = normalized_man [13:0] $end
$var reg 8 > final_exp [7:0] $end
$var reg 1 ? is_infinity $end
$var reg 1 @ is_zero $end
$var reg 1 A is_input_zero $end
$var reg 1 B valid_pre $end
$var reg 1 C ready_pre $end
$var reg 16 D result_pre [15:0] $end
$var parameter 32 E MAX_TOTAL_BITS [31:0] $end
$var parameter 32 F MAX_EXP_BITS [31:0] $end
$var parameter 32 G MAX_MAN_BITS [31:0] $end
$scope module mantissa_core $end
$var wire 1 ! clk $end
$var wire 1 " rst_n $end
$var wire 1 H start $end
$var wire 4 I precision [3:0] $end
$var wire 14 J A [13:0] $end
$var wire 14 K B [13:0] $end
$var wire 1 L sign_a $end
$var wire 1 M sign_b $end
$var wire 1 N is_float $end
$var reg 28 8 result [27:0] $end
$var reg 1 9 result_sign $end
$var reg 1 : done $end
$var reg 1 ; busy $end
$var reg 2 O state [1:0] $end
$var reg 32 P acc [31:0] $end
$var reg 32 Q mcd_r [31:0] $end
$var reg 15 R mpr_r [14:0] $end
$var reg 1 S prev_b $end
$var reg 4 T cyc [3:0] $end
$var reg 4 U max_cyc [3:0] $end
$var reg 1 V sign_r $end
$var reg 14 W prec_mask [13:0] $end
$var reg 14 X a_proc [13:0] $end
$var reg 14 Y b_proc [13:0] $end
$var reg 32 Z mcd_s [31:0] $end
$var reg 32 [ booth_pp [31:0] $end
$var reg 1 \ clk_en $end
$var parameter 0 ] MAX_MAN_BITS $end
$var parameter 0 ^ ACC_W $end
$upscope $end
$scope module exp_core $end
$var wire 4 _ exp_bits [3:0] $end
$var wire 8 ` exp_a [7:0] $end
$var wire 8 a exp_b [7:0] $end
$var wire 1 b norm_shift $end
$var reg 8 > final_exp [7:0] $end
$var reg 1 ? is_infinity $end
$var reg 1 @ is_zero $end
$var reg 11 c calc_exp [10:0] $end
$var reg 11 d bias [10:0] $end
$var reg 11 e max_exp_val [10:0] $end
$var parameter 32 f MAX_EXP_BITS [31:0] $end
$upscope $end
$upscope $end
$upscope $end
$enddefinitions $end
#0
$dumpvars
0!
1"
0#
1$
0%
b111 &
b100 '
b1010000 (
b1001000 )
b0 *
b1010000 +
b1001000 ,
b111 -
b100 .
0/
b10 0
11
12
b100 3
b10 4
b0 5
b0 6
b11 7
b10000 8
09
0:
0;
0<
b0 =
b0 >
0?
1@
0A
0B
1C
b0 D
b10000 E
b1000 F
b1110 G
0H
b11 I
b0 J
b0 K
1L
1M
1N
b0 O
b10000 P
b1000000 Q
b0 R
0S
b10 T
b10 U
0V
b111 W
b100 X
b100 Y
b1000000 Z
b0 [
0\
b1110 ]
b100000 ^
b100 _
b100 `
b10 a
0b
b11111111111 c
b111 d
b1111 e
b1000 f
$end
#1005000
1!
1#
0%
b1010001 (
b1101 )
#1010000
0!
#1015000
1!
0#
0%
b1010001 +
b1101 ,
1/
02
b100 3
b11 4
b1 5
b1 6
1H
b1 J
b1 K
0M
b111 W
b101 X
b101 Y
b11 a
b0 c
b111 d
b1111 e
#1020000
0!
#1025000
1!
0%
0/
1;
0C
0H
b1 O
b0 T
1V
#1030000
0!
#1035000
1!
0$
0%
b10 O
b0 P
b101 Q
b101 R
b101 Z
b101 [
1\
#1040000
0!
#1045000
1!
0%
b101 P
b10100 Q
b1 R
b1 T
b10100 Z
b10100 [
#1050000
0!
#1055000
1!
0%
b11 O
b11001 P
b1010000 Q
b0 R
b10 T
b1010000 Z
b0 [
0\
#1060000
0!
#1065000
1!
0%
b11001 8
19
1:
0;
b10 =
b0 O
#1070000
0!
#1075000
1!
0%
0:
1B
1C
#1080000
0!
#1085000
1!
1$
1%
0B
#1090000
0!
#1095000
1!
0%
#1100000
0!
#1105000
1!
1#
0%
b10000 (
b101100 )
#1110000
0!
#1115000
1!
0#
0%
b10000 +
b101100 ,
1/
01
b100 3
b1011 4
b0 5
b0 6
b1000 >
0@
1H
b0 J
b0 K
0L
b111 W
b100 X
b100 Y
b1011 a
b1000 c
b111 d
b1111 e
#1120000
0!
#1125000
1!
0%
0/
1;
0C
0H
b1 O
b0 T
0V
#1130000
0!
#1135000
1!
0$
0%
b10 O
b0 P
b100 Q
b100 R
b100 Z
1\
#1140000
0!
#1145000
1!
0%
b10000 Q
b1 R
b1 T
b10000 Z
b10000 [
#1150000
0!
#1155000
1!
0%
b11 O
b10000 P
b1000000 Q
b0 R
b10 T
b1000000 Z
b0 [
0\
#1160000
0!
#1165000
1!
0%
b10000 8
09
1:
0;
b0 =
b0 O
#1170000
0!
#1175000
1!
0%
0:
1B
1C
b100000 D
#1180000
0!
#1185000
1!
1$
1%
b100000 *
0B
#1190000
0!
#1195000
1!
0%
#1200000
0!
#1205000
1!
1#
0%
b100101 (
b1100000 )
#1210000
0!
#1215000
1!
0#
0%
b100101 +
b1100000 ,
1/
12
b1001 3
b1000 4
b1 5
b0 6
b1010 >
1H
b1 J
1M
b111 W
b101 X
b1001 `
b1000 a
b1010 c
b111 d
b1111 e
#1220000
0!
#1225000
1!
0%
0/
1;
0C
0H
b1 O
b0 T
1V
#1230000
0!
#1235000
1!
0$
0%
b10 O
b0 P
b101 Q
b100 R
b101 Z
1\
#1240000
0!
#1245000
1!
0%
b10100 Q
b1 R
b1 T
b10100 Z
b10100 [
#1250000
0!
#1255000
1!
0%
b11 O
b10100 P
b1010000 Q
b0 R
b10 T
b1010000 Z
b0 [
0\
#1260000
0!
#1265000
1!
0%
b10100 8
19
1:
0;
b1 =
b0 O
#1270000
0!
#1275000
1!
0%
0:
1B
1C
b1101001 D
#1280000
0!
#1285000
1!
1$
1%
b1101001 *
0B
#1290000
0!
#1295000
1!
0%
#1300000
0!
#1305000
1!
1#
0%
b1110101 (
b1110110 )
#1310000
0!
#1315000
1!
0#
0%
b1110101 +
b1110110 ,
1/
11
b1101 3
b1101 4
b1 5
b10 6
b1111 >
1?
1H
b10 K
1L
b111 W
b110 Y
b1101 `
b1101 a
b10011 c
b111 d
b1111 e
#1320000
0!
#1325000
1!
0%
0/
1;
0C
0H
b1 O
b0 T
0V
#1330000
0!
#1335000
1!
0$
0%
b10 O
b0 P
b101 Q
b110 R
b101 Z
b11111111111111111111111111110110 [
1\
#1340000
0!
#1345000
1!
0%
b11111111111111111111111111110110 P
b10100 Q
b1 R
1S
b1 T
b10100 Z
b101000 [
#1350000
0!
#1355000
1!
0%
b11 O
b11110 P
b1010000 Q
b0 R
0S
b10 T
b1010000 Z
b0 [
0\
#1360000
0!
#1365000
1!
0%
b11110 8
09
1:
0;
b11 =
b0 O
#1370000
0!
#1375000
1!
0%
0:
1B
1C
b111100 D
#1380000
0!
#1385000
1!
1$
1%
b111100 *
0B
#1390000
0!
#1395000
1!
0%
#1400000
0!
#1405000
1!
1#
0%
b1101101 (
b101 )
#1410000
0!
#1415000
1!
0#
0%
b1101101 +
b101 ,
1/
02
b1011 3
b1 4
b1 5
b1 6
b101 >
0?
1H
b1 K
0M
b111 W
b101 Y
b1011 `
b1 a
b101 c
b111 d
b1111 e
#1420000
0!
#1425000
1!
0%
0/
1;
0C
0H
b1 O
b0 T
1V
#1430000
0!
#1435000
1!
0$
0%
b10 O
b0 P
b101 Q
b101 R
b101 Z
b101 [
1\
#1440000
0!
#1445000
1!
0%
b101 P
b10100 Q
b1 R
b1 T
b10100 Z
b10100 [
#1450000
0!
#1455000
1!
0%
b11 O
b11001 P
b1010000 Q
b0 R
b10 T
b1010000 Z
b0 [
0\
#1460000
0!
#1465000
1!
0%
b11001 8
19
1:
0;
b10 =
b0 O
#1470000
0!
#1475000
1!
0%
0:
1B
1C
b1010110 D
#1480000
0!
#1485000
1!
1$
1%
b1010110 *
0B
#1490000
0!
#1495000
1!
0%
#1500000
0!
#1505000
1!
1#
0%
b100011 (
b10011 )
#1510000
0!
#1515000
1!
0#
0%
b100011 +
b10011 ,
1/
01
b1000 3
b100 4
b11 5
b11 6
1H
b11 J
b11 K
0L
b111 W
b111 X
b111 Y
b1000 `
b100 a
b101 c
b111 d
b1111 e
#1520000
0!
#1525000
1!
0%
0/
1;
0C
0H
b1 O
b0 T
0V
#1530000
0!
#1535000
1!
0$
0%
b10 O
b0 P
b111 Q
b111 R
b111 Z
b11111111111111111111111111111001 [
1\
#1540000
0!
#1545000
1!
0%
b11111111111111111111111111111001 P
b11100 Q
b1 R
1S
b1 T
b11100 Z
b111000 [
#1550000
0!
#1555000
1!
0%
b11 O
b110001 P
b1110000 Q
b0 R
0S
b10 T
b1110000 Z
b0 [
0\
#1560000
0!
#1565000
1!
0%
b110001 8
09
1:
0;
1<
b110 >
b0 O
1b
b110 c
b111 d
b1111 e
#1570000
0!
#1575000
1!
0%
0:
1B
1C
b11010 D
#1580000
0!
#1585000
1!
1$
1%
b11010 *
0B
#1590000
0!
#1595000
1!
0%
#1600000
0!
#1605000
1!
1#
0%
b1100101 (
b11000 )
#1610000
0!
#1615000
1!
0#
0%
b1100101 +
b11000 ,
1/
11
b1001 3
b110 4
b1 5
b0 6
b1001 >
1H
b1 J
b0 K
1L
b111 W
b101 X
b100 Y
b1001 `
b110 a
b1001 c
b111 d
b1111 e
#1620000
0!
#1625000
1!
0%
0/
1;
0C
0H
b1 O
b0 T
1V
#1630000
0!
#1635000
1!
0$
0%
b10 O
b0 P
b101 Q
b100 R
b101 Z
1\
#1640000
0!
#1645000
1!
0%
b10100 Q
b1 R
b1 T
b10100 Z
b10100 [
#1650000
0!
#1655000
1!
0%
b11 O
b10100 P
b1010000 Q
b0 R
b10 T
b1010000 Z
b0 [
0\
#1660000
0!
#1665000
1!
0%
b10100 8
19
1:
0;
0<
b1 =
b1000 >
b0 O
0b
b1000 c
b111 d
b1111 e
#1670000
0!
#1675000
1!
0%
0:
1B
1C
b1100001 D
#1680000
0!
#1685000
1!
1$
1%
b1100001 *
0B
#1690000
0!
#1695000
1!
0%
#1700000
0!
#1705000
1!
1#
0%
b1001 (
b1010011 )
#1710000
0!
#1715000
1!
0#
0%
b1001 +
b1010011 ,
1/
01
12
b10 3
b100 4
b1 5
b11 6
b0 >
1@
1H
b11 K
0L
1M
b111 W
b111 Y
b10 `
b100 a
b11111111111 c
b111 d
b1111 e
#1720000
0!
#1725000
1!
0%
0/
1;
0C
0H
b1 O
b0 T
#1730000
0!
#1735000
1!
0$
0%
b10 O
b0 P
b101 Q
b111 R
b101 Z
b11111111111111111111111111111011 [
1\
#1740000
0!
#1745000
1!
0%
b11111111111111111111111111111011 P
b10100 Q
b1 R
1S
b1 T
b10100 Z
b101000 [
#1750000
0!
#1755000
1!
0%
b11 O
b100011 P
b1010000 Q
b0 R
0S
b10 T
b1010000 Z
b0 [
0\
#1760000
0!
#1765000
1!
0%
b100011 8
1:
0;
1<
b0 =
b0 O
1b
b0 c
b111 d
b1111 e
#1770000
0!
#1775000
1!
0%
0:
1B
1C
b0 D
#1780000
0!
#1785000
1!
1$
1%
b0 *
0B
#1790000
0!
#1795000
1!
0%
#1800000
0!
#1805000
1!
1#
0%
b11101 (
b101100 )
#1810000
0!
#1815000
1!
0#
0%
b11101 +
b101100 ,
1/
02
b111 3
b1011 4
b1 5
b0 6
b1100 >
0@
1H
b0 K
0M
b111 W
b100 Y
b111 `
b1011 a
b1100 c
b111 d
b1111 e
#1820000
0!
#1825000
1!
0%
0/
1;
0C
0H
b1 O
b0 T
0V
#1830000
0!
#1835000
1!
0$
0%
b10 O
b0 P
b101 Q
b100 R
b101 Z
1\
#1840000
0!
#1845000
1!
0%
b10100 Q
b1 R
b1 T
b10100 Z
b10100 [
#1850000
0!
#1855000
1!
0%
b11 O
b10100 P
b1010000 Q
b0 R
b10 T
b1010000 Z
b0 [
0\
#1860000
0!
#1865000
1!
0%
b10100 8
09
1:
0;
0<
b1 =
b1011 >
b0 O
0b
b1011 c
b111 d
b1111 e
#1870000
0!
#1875000
1!
0%
0:
1B
1C
b101101 D
#1880000
0!
#1885000
1!
1$
1%
b101101 *
0B
#1890000
0!
#1895000
1!
0%
#1900000
0!
#1905000
1!
1#
0%
b1100110 (
b10 )
#1910000
0!
#1915000
1!
0#
0%
b1100110 +
b10 ,
1/
11
b1001 3
b0 4
b10 5
b10 6
b10 >
1H
b10 J
b10 K
1L
b111 W
b110 X
b110 Y
b1001 `
b0 a
b10 c
b111 d
b1111 e
#1920000
0!
#1925000
1!
0%
0/
1;
0C
0H
b1 O
b0 T
1V
#1930000
0!
#1935000
1!
0$
0%
b10 O
b0 P
b110 Q
b110 R
b110 Z
b11111111111111111111111111110100 [
1\
#1940000
0!
#1945000
1!
0%
b11111111111111111111111111110100 P
b11000 Q
b1 R
1S
b1 T
b11000 Z
b110000 [
#1950000
0!
#1955000
1!
0%
b11 O
b100100 P
b1100000 Q
b0 R
0S
b10 T
b1100000 Z
b0 [
0\
#1960000
0!
#1965000
1!
0%
b100100 8
19
1:
0;
1<
b0 =
b11 >
b0 O
1b
b11 c
b111 d
b1111 e
#1970000
0!
#1975000
1!
0%
0:
1B
1C
b1001100 D
#1980000
0!
#1985000
1!
1$
1%
b1001100 *
0B
#1990000
0!
#1995000
1!
0%
#2000000
0!
#2005000
1!
1#
0%
b1000100 (
b1101111 )
#2010000
0!
#2015000
1!
0#
0%
b1000100 +
b1101111 ,
1/
12
b1 3
b1011 4
b0 5
b11 6
b110 >
1H
b0 J
b11 K
1M
b111 W
b100 X
b111 Y
b1 `
b1011 a
b110 c
b111 d
b1111 e
#2020000
0!
#2025000
1!
0%
0/
1;
0C
0H
b1 O
b0 T
0V
#2030000
0!
#2035000
1!
0$
0%
b10 O
b0 P
b100 Q
b111 R
b100 Z
b11111111111111111111111111111100 [
1\
#2040000
0!
#2045000
1!
0%
b11111111111111111111111111111100 P
b10000 Q
b1 R
1S
b1 T
b10000 Z
b100000 [
#2050000
0!
#2055000
1!
0%
b11 O
b11100 P
b1000000 Q
b0 R
0S
b10 T
b1000000 Z
b0 [
0\
#2060000
0!
#2065000
1!
0%
b11100 8
09
1:
0;
0<
b11 =
b101 >
b0 O
0b
b101 c
b111 d
b1111 e
#2070000
0!
#2075000
1!
0%
0:
1B
1C
b10111 D
#2080000
0!
#2085000
1!
1$
1%
b10111 *
0B
#2090000
0!
#2095000
1!
0%
#2100000
0!
#2105000
1!
1#
0%
b1010101 (
b1100001 )
#2110000
0!
#2115000
1!
0#
0%
b1010101 +
b1100001 ,
1/
b101 3
b1000 4
b1 5
b1 6
b110 >
1H
b1 J
b1 K
b111 W
b101 X
b101 Y
b101 `
b1000 a
b110 c
b111 d
b1111 e
#2120000
0!
#2125000
1!
0%
0/
1;
0C
0H
b1 O
b0 T
#2130000
0!
#2135000
1!
0$
0%
b10 O
b0 P
b101 Q
b101 R
b101 Z
b101 [
1\
#2140000
0!
#2145000
1!
0%
b101 P
b10100 Q
b1 R
b1 T
b10100 Z
b10100 [
#2150000
0!
#2155000
1!
0%
b11 O
b11001 P
b1010000 Q
b0 R
b10 T
b1010000 Z
b0 [
0\
#2160000
0!
#2165000
1!
0%
b11001 8
1:
0;
b10 =
b0 O
#2170000
0!
#2175000
1!
0%
0:
1B
1C
b11010 D
#2180000
0!
#2185000
1!
1$
1%
b11010 *
0B
#2190000
0!
#2195000
1!
0%
#2200000
0!
#2205000
1!
1#
0%
b11100 (
b111011 )
#2210000
0!
#2215000
1!
0#
0%
b11100 +
b111011 ,
1/
01
02
b111 3
b1110 4
b0 5
b11 6
b1110 >
1H
b0 J
b11 K
0L
0M
b111 W
b100 X
b111 Y
b111 `
b1110 a
b1110 c
b111 d
b1111 e
#2220000
0!
#2225000
1!
0%
0/
1;
0C
0H
b1 O
b0 T
#2230000
0!
#2235000
1!
0$
0%
b10 O
b0 P
b100 Q
b111 R
b100 Z
b11111111111111111111111111111100 [
1\
#2240000
0!
#2245000
1!
0%
b11111111111111111111111111111100 P
b10000 Q
b1 R
1S
b1 T
b10000 Z
b100000 [
#2250000
0!
#2255000
1!
0%
b11 O
b11100 P
b1000000 Q
b0 R
0S
b10 T
b1000000 Z
b0 [
0\
#2260000
0!
#2265000
1!
0%
b11100 8
1:
0;
b11 =
b0 O
#2270000
0!
#2275000
1!
0%
0:
1B
1C
b111011 D
#2280000
0!
#2285000
1!
1$
1%
b111011 *
0B
#2290000
0!
#2295000
1!
0%
#2300000
0!
#2305000
1!
1#
0%
b1100100 (
b1100000 )
#2310000
0!
#2315000
1!
0#
0%
b1100100 +
b1100000 ,
1/
11
12
b1001 3
b1000 4
b0 5
b0 6
b1010 >
1H
b0 K
1L
1M
b111 W
b100 Y
b1001 `
b1000 a
b1010 c
b111 d
b1111 e
#2320000
0!
#2325000
1!
0%
0/
1;
0C
0H
b1 O
b0 T
#2330000
0!
#2335000
1!
0$
0%
b10 O
b0 P
b100 Q
b100 R
b100 Z
1\
#2340000
0!
#2345000
1!
0%
b10000 Q
b1 R
b1 T
b10000 Z
b10000 [
#2350000
0!
#2355000
1!
0%
b11 O
b10000 P
b1000000 Q
b0 R
b10 T
b1000000 Z
b0 [
0\
#2360000
0!
#2365000
1!
0%
b10000 8
1:
0;
b0 =
b0 O
#2370000
0!
#2375000
1!
0%
0:
1B
1C
b101000 D
#2380000
0!
#2385000
1!
1$
1%
b101000 *
0B
#2390000
0!
#2395000
1!
0%
#2400000
0!
#2405000
1!
1#
0%
b101011 (
b111001 )
#2410000
0!
#2415000
1!
0#
0%
b101011 +
b111001 ,
1/
01
02
b1010 3
b1110 4
b11 5
b1 6
b1111 >
1?
1H
b11 J
b1 K
0L
0M
b111 W
b111 X
b101 Y
b1010 `
b1110 a
b10001 c
b111 d
b1111 e
#2420000
0!
#2425000
1!
0%
0/
1;
0C
0H
b1 O
b0 T
#2430000
0!
#2435000
1!
0$
0%
b10 O
b0 P
b111 Q
b101 R
b111 Z
b111 [
1\
#2440000
0!
#2445000
1!
0%
b111 P
b11100 Q
b1 R
b1 T
b11100 Z
b11100 [
#2450000
0!
#2455000
1!
0%
b11 O
b100011 P
b1110000 Q
b0 R
b10 T
b1110000 Z
b0 [
0\
#2460000
0!
#2465000
1!
0%
b100011 8
1:
0;
1<
b0 O
1b
b10010 c
b111 d
b1111 e
#2470000
0!
#2475000
1!
0%
0:
1B
1C
b111100 D
#2480000
0!
#2485000
1!
1$
1%
b111100 *
0B
#2490000
0!
#2495000
1!
0%
#2500000
0!
#2505000
1!
1#
0%
b1000010 (
b1000111 )
#2510000
0!
#2515000
1!
0#
0%
b1000010 +
b1000111 ,
1/
11
12
b0 3
b1 4
b10 5
b11 6
b0 >
0?
1@
1H
b10 J
b11 K
1L
1M
b111 W
b110 X
b111 Y
b0 `
b1 a
b11111111011 c
b111 d
b1111 e
#2520000
0!
#2525000
1!
0%
0/
1;
0C
0H
b1 O
b0 T
#2530000
0!
#2535000
1!
0$
0%
b10 O
b0 P
b110 Q
b111 R
b110 Z
b11111111111111111111111111111010 [
1\
#2540000
0!
#2545000
1!
0%
b11111111111111111111111111111010 P
b11000 Q
b1 R
1S
b1 T
b11000 Z
b110000 [
#2550000
0!
#2555000
1!
0%
b11 O
b101010 P
b1100000 Q
b0 R
0S
b10 T
b1100000 Z
b0 [
0\
#2560000
0!
#2565000
1!
0%
b101010 8
1:
0;
b1 =
b0 O
#2570000
0!
#2575000
1!
0%
0:
1B
1C
b0 D
#2580000
0!
#2585000
1!
1$
1%
b0 *
0B
#2590000
0!
#2595000
1!
0%
#2600000
0!
#2605000
1!
1#
0%
b1110101 (
b100110 )
#2610000
0!
#2615000
1!
0#
0%
b1110101 +
b100110 ,
1/
02
b1101 3
b1001 4
b1 5
b10 6
b1111 >
1?
0@
1H
b1 J
b10 K
0M
b111 W
b101 X
b110 Y
b1101 `
b1001 a
b10000 c
b111 d
b1111 e
#2620000
0!
#2625000
1!
0%
0/
1;
0C
0H
b1 O
b0 T
1V
#2630000
0!
#2635000
1!
0$
0%
b10 O
b0 P
b101 Q
b110 R
b101 Z
b11111111111111111111111111110110 [
1\
#2640000
0!
#2645000
1!
0%
b11111111111111111111111111110110 P
b10100 Q
b1 R
1S
b1 T
b10100 Z
b101000 [
#2650000
0!
#2655000
1!
0%
b11 O
b11110 P
b1010000 Q
b0 R
0S
b10 T
b1010000 Z
b0 [
0\
#2660000
0!
#2665000
1!
0%
b11110 8
19
1:
0;
0<
b11 =
b0 O
0b
b1111 c
b111 d
b1111 e
#2670000
0!
#2675000
1!
0%
0:
1B
1C
b1111100 D
#2680000
0!
#2685000
1!
1$
1%
b1111100 *
0B
#2690000
0!
#2695000
1!
0%
#2700000
0!
#2705000
1!
1#
0%
b100111 (
b100000 )
#2710000
0!
#2715000
1!
0#
0%
b100111 +
b100000 ,
1/
01
b1001 3
b1000 4
b11 5
b0 6
b1010 >
0?
1H
b11 J
b0 K
0L
b111 W
b111 X
b100 Y
b1001 `
b1000 a
b1010 c
b111 d
b1111 e
#2720000
0!
#2725000
1!
0%
0/
1;
0C
0H
b1 O
b0 T
0V
#2730000
0!
#2735000
1!
0$
0%
b10 O
b0 P
b111 Q
b100 R
b111 Z
1\
#2740000
0!
#2745000
1!
0%
b11100 Q
b1 R
b1 T
b11100 Z
b11100 [
#2750000
0!
#2755000
1!
0%
b11 O
b11100 P
b1110000 Q
b0 R
b10 T
b1110000 Z
b0 [
0\
#2760000
0!
#2765000
1!
0%
b11100 8
09
1:
0;
b0 O
#2770000
0!
#2775000
1!
0%
0:
1B
1C
b101011 D
#2780000
0!
#2785000
1!
1$
1%
b101011 *
0B
#2790000
0!
#2795000
1!
0%
#2800000
0!
#2805000
1!
1#
0%
b1011111 (
b1101001 )
#2810000
0!
#2815000
1!
0#
0%
b1011111 +
b1101001 ,
1/
11
12
b111 3
b1010 4
b11 5
b1 6
1H
b1 K
1L
1M
b111 W
b101 Y
b111 `
b1010 a
b1010 c
b111 d
b1111 e
#2820000
0!
#2825000
1!
0%
0/
1;
0C
0H
b1 O
b0 T
#2830000
0!
#2835000
1!
0$
0%
b10 O
b0 P
b111 Q
b101 R
b111 Z
b111 [
1\
#2840000
0!
#2845000
1!
0%
b111 P
b11100 Q
b1 R
b1 T
b11100 Z
b11100 [
#2850000
0!
#2855000
1!
0%
b11 O
b100011 P
b1110000 Q
b0 R
b10 T
b1110000 Z
b0 [
0\
#2860000
0!
#2865000
1!
0%
b100011 8
1:
0;
1<
b0 =
b1011 >
b0 O
1b
b1011 c
b111 d
b1111 e
#2870000
0!
#2875000
1!
0%
0:
1B
1C
b101100 D
#2880000
0!
#2885000
1!
1$
1%
b101100 *
0B
#2890000
0!
#2895000
1!
0%
#2900000
0!
#2905000
1!
1#
0%
b1100111 (
b1010100 )
#2910000
0!
#2915000
1!
0#
0%
b1100111 +
b1010100 ,
1/
b1001 3
b101 4
b11 5
b0 6
b1000 >
1H
b0 K
b111 W
b100 Y
b1001 `
b101 a
b1000 c
b111 d
b1111 e
#2920000
0!
#2925000
1!
0%
0/
1;
0C
0H
b1 O
b0 T
#2930000
0!
#2935000
1!
0$
0%
b10 O
b0 P
b111 Q
b100 R
b111 Z
1\
#2940000
0!
#2945000
1!
0%
b11100 Q
b1 R
b1 T
b11100 Z
b11100 [
#2950000
0!
#2955000
1!
0%
b11 O
b11100 P
b1110000 Q
b0 R
b10 T
b1110000 Z
b0 [
0\
#2960000
0!
#2965000
1!
0%
b11100 8
1:
0;
0<
b11 =
b111 >
b0 O
0b
b111 c
b111 d
b1111 e
#2970000
0!
#2975000
1!
0%
0:
1B
1C
b11111 D
#2980000
0!
#2985000
1!
1$
1%
b11111 *
0B
#2990000
0!
#2995000
1!
0%
#3000000
0!
#3005000
1!
1#
0%
b1111 (
b1110 )
#3010000
0!
#3015000
1!
0#
0%
b1111 +
b1110 ,
1/
01
02
b11 3
b11 4
b11 5
b10 6
b0 >
1@
1H
b10 K
0L
0M
b111 W
b110 Y
b11 `
b11 a
b11111111111 c
b111 d
b1111 e
#3020000
0!
#3025000
1!
0%
0/
1;
0C
0H
b1 O
b0 T
#3030000
0!
#3035000
1!
0$
0%
b10 O
b0 P
b111 Q
b110 R
b111 Z
b11111111111111111111111111110010 [
1\
#3040000
0!
#3045000
1!
0%
b11111111111111111111111111110010 P
b11100 Q
b1 R
1S
b1 T
b11100 Z
b111000 [
#3050000
0!
#3055000
1!
0%
b11 O
b101010 P
b1110000 Q
b0 R
0S
b10 T
b1110000 Z
b0 [
0\
#3060000
0!
#3065000
1!
0%
b101010 8
1:
0;
1<
b1 =
b0 O
1b
b0 c
b111 d
b1111 e
#3070000
0!
#3075000
1!
0%
0:
1B
1C
b0 D
#3080000
0!
#3085000
1!
1$
1%
b0 *
0B
#3090000
0!
#3095000
1!
0%
#3100000
0!
#3105000
1!
1#
0%
b1110100 (
b1101111 )
#3110000
0!
#3115000
1!
0#
0%
b1110100 +
b1101111 ,
1/
11
12
b1101 3
b1011 4
b0 5
b11 6
b1111 >
1?
0@
1H
b0 J
b11 K
1L
1M
b111 W
b100 X
b111 Y
b1101 `
b1011 a
b10010 c
b111 d
b1111 e
#3120000
0!
#3125000
1!
0%
0/
1;
0C
0H
b1 O
b0 T
#3130000
0!
#3135000
1!
0$
0%
b10 O
b0 P
b100 Q
b111 R
b100 Z
b11111111111111111111111111111100 [
1\
#3140000
0!
#3145000
1!
0%
b11111111111111111111111111111100 P
b10000 Q
b1 R
1S
b1 T
b10000 Z
b100000 [
#3150000
0!
#3155000
1!
0%
b11 O
b11100 P
b1000000 Q
b0 R
0S
b10 T
b1000000 Z
b0 [
0\
#3160000
0!
#3165000
1!
0%
b11100 8
1:
0;
0<
b11 =
b0 O
0b
b10001 c
b111 d
b1111 e
#3170000
0!
#3175000
1!
0%
0:
1B
1C
b111100 D
#3180000
0!
#3185000
1!
1$
1%
b111100 *
0B
#3190000
0!
#3195000
1!
0%
#3200000
0!
#3205000
1!
1#
0%
b1111000 (
b1011011 )
#3210000
0!
#3215000
1!
0#
0%
b1111000 +
b1011011 ,
1/
b1110 3
b110 4
b0 5
b11 6
b1101 >
0?
1H
b1110 `
b110 a
b1101 c
b111 d
b1111 e
#3220000
0!
#3225000
1!
0%
0/
1;
0C
0H
b1 O
b0 T
#3230000
0!
#3235000
1!
0$
0%
b10 O
b0 P
b100 Q
b111 R
b100 Z
b11111111111111111111111111111100 [
1\
#3240000
0!
#3245000
1!
0%
b11111111111111111111111111111100 P
b10000 Q
b1 R
1S
b1 T
b10000 Z
b100000 [
#3250000
0!
#3255000
1!
0%
b11 O
b11100 P
b1000000 Q
b0 R
0S
b10 T
b1000000 Z
b0 [
0\
#3260000
0!
#3265000
1!
0%
1:
0;
b0 O
#3270000
0!
#3275000
1!
0%
0:
1B
1C
b110111 D
#3280000
0!
#3285000
1!
1$
1%
b110111 *
0B
#3290000
0!
#3295000
1!
0%
#3300000
0!
#3305000
1!
1#
0%
b1000011 (
b111 )
#3310000
0!
#3315000
1!
0#
0%
b1000011 +
b111 ,
1/
02
b0 3
b1 4
b11 5
b11 6
b0 >
1@
1H
b11 J
0M
b111 W
b111 X
b0 `
b1 a
b11111111010 c
b111 d
b1111 e
#3320000
0!
#3325000
1!
0%
0/
1;
0C
0H
b1 O
b0 T
1V
#3330000
0!
#3335000
1!
0$
0%
b10 O
b0 P
b111 Q
b111 R
b111 Z
b11111111111111111111111111111001 [
1\
#3340000
0!
#3345000
1!
0%
b11111111111111111111111111111001 P
b11100 Q
b1 R
1S
b1 T
b11100 Z
b111000 [
#3350000
0!
#3355000
1!
0%
b11 O
b110001 P
b1110000 Q
b0 R
0S
b10 T
b1110000 Z
b0 [
0\
#3360000
0!
#3365000
1!
0%
b110001 8
19
1:
0;
1<
b10 =
b0 O
1b
b11111111011 c
b111 d
b1111 e
#3370000
0!
#3375000
1!
0%
0:
1B
1C
b0 D
#3380000
0!
#3385000
1!
1$
1%
b0 *
0B
#3390000
0!
#3395000
1!
0%
#3400000
0!
#3405000
1!
1#
0%
b1101010 (
b111000 )
#3410000
0!
#3415000
1!
0#
0%
b1101010 +
b111000 ,
1/
b1010 3
b1110 4
b10 5
b0 6
b1111 >
1?
0@
1H
b10 J
b0 K
b111 W
b110 X
b100 Y
b1010 `
b1110 a
b10010 c
b111 d
b1111 e
#3420000
0!
#3425000
1!
0%
0/
1;
0C
0H
b1 O
b0 T
#3430000
0!
#3435000
1!
0$
0%
b10 O
b0 P
b110 Q
b100 R
b110 Z
1\
#3440000
0!
#3445000
1!
0%
b11000 Q
b1 R
b1 T
b11000 Z
b11000 [
#3450000
0!
#3455000
1!
0%
b11 O
b11000 P
b1100000 Q
b0 R
b10 T
b1100000 Z
b0 [
0\
#3460000
0!
