VGG11_config1/vcd/fp_8_3.vcd
$date
   Tue Apr 14 22:42:39 2026
$end
$version
  2019.2
$end
$timescale
  1ps
$end
$scope module tb_fp $end
$scope module dut $end
$var wire 1 ! clk $end
$var wire 1 " rst_n $end
$var wire 1 # start $end
$var reg 1 $ ready $end
$var reg 1 % valid $end
$var wire 5 & total_bits [4:0] $end
$var wire 4 ' exp_bits [3:0] $end
$var wire 16 ( A [15:0] $end
$var wire 16 ) B [15:0] $end
$var reg 16 * result [15:0] $end
$var reg 16 + A_ff [15:0] $end
$var reg 16 , B_ff [15:0] $end
$var reg 5 - total_bits_ff [4:0] $end
$var reg 4 . exp_bits_ff [3:0] $end
$var reg 1 / start_ff $end
$var reg 5 0 man_bits [4:0] $end
$var reg 1 1 sign_a $end
$var reg 1 2 sign_b $end
$var reg 8 3 exp_a [7:0] $end
$var reg 8 4 exp_b [7:0] $end
$var reg 14 5 man_a [13:0] $end
$var reg 14 6 man_b [13:0] $end
$var reg 4 7 mult_precision [3:0] $end
$var reg 28 8 mult_result [27:0] $end
$var reg 1 9 mult_result_sign $end
$var reg 1 : mult_done $end
$var reg 1 ; mult_busy $end
$var reg 1 < overflow $end
$var reg 14 = normalized_man [13:0] $end
$var reg 8 > final_exp [7:0] $end
$var reg 1 ? is_infinity $end
$var reg 1 @ is_zero $end
$var reg 1 A is_input_zero $end
$var reg 1 B valid_pre $end
$var reg 1 C ready_pre $end
$var reg 16 D result_pre [15:0] $end
$var parameter 32 E MAX_TOTAL_BITS [31:0] $end
$var parameter 32 F MAX_EXP_BITS [31:0] $end
$var parameter 32 G MAX_MAN_BITS [31:0] $end
$scope module mantissa_core $end
$var wire 1 ! clk $end
$var wire 1 " rst_n $end
$var wire 1 H start $end
$var wire 4 I precision [3:0] $end
$var wire 14 J A [13:0] $end
$var wire 14 K B [13:0] $end
$var wire 1 L sign_a $end
$var wire 1 M sign_b $end
$var wire 1 N is_float $end
$var reg 28 8 result [27:0] $end
$var reg 1 9 result_sign $end
$var reg 1 : done $end
$var reg 1 ; busy $end
$var reg 2 O state [1:0] $end
$var reg 32 P acc [31:0] $end
$var reg 32 Q mcd_r [31:0] $end
$var reg 15 R mpr_r [14:0] $end
$var reg 1 S prev_b $end
$var reg 4 T cyc [3:0] $end
$var reg 4 U max_cyc [3:0] $end
$var reg 1 V sign_r $end
$var reg 14 W prec_mask [13:0] $end
$var reg 14 X a_proc [13:0] $end
$var reg 14 Y b_proc [13:0] $end
$var reg 32 Z mcd_s [31:0] $end
$var reg 32 [ booth_pp [31:0] $end
$var reg 1 \ clk_en $end
$var parameter 0 ] MAX_MAN_BITS $end
$var parameter 0 ^ ACC_W $end
$upscope $end
$scope module exp_core $end
$var wire 4 _ exp_bits [3:0] $end
$var wire 8 ` exp_a [7:0] $end
$var wire 8 a exp_b [7:0] $end
$var wire 1 b norm_shift $end
$var reg 8 > final_exp [7:0] $end
$var reg 1 ? is_infinity $end
$var reg 1 @ is_zero $end
$var reg 11 c calc_exp [10:0] $end
$var reg 11 d bias [10:0] $end
$var reg 11 e max_exp_val [10:0] $end
$var parameter 32 f MAX_EXP_BITS [31:0] $end
$upscope $end
$upscope $end
$upscope $end
$enddefinitions $end
#0
$dumpvars
0!
1"
0#
1$
0%
b1000 &
b11 '
b1010000 (
b11001000 )
b11000100 *
b1010000 +
b11001000 ,
b1000 -
b11 .
1/
b100 0
01
12
b101 3
b100 4
b0 5
b1000 6
b101 7
b1010001000 8
19
0:
0;
1<
b100 =
b111 >
1?
0@
0A
0B
1C
b11000100 D
b10000 E
b1000 F
b1110 G
1H
b101 I
b0 J
b1000 K
0L
1M
1N
b0 O
b1010001000 P
b11011000000 Q
b0 R
0S
b11 T
b11 U
1V
b11111 W
b10000 X
b11000 Y
b11011000000 Z
b0 [
0\
b1110 ]
b100000 ^
b11 _
b101 `
b100 a
1b
b111 c
b11 d
b111 e
b1000 f
$end
#1005000
1!
0%
0/
1;
0C
0H
b1 O
b0 T
#1010000
0!
#1015000
1!
0$
0%
b10 O
b0 P
b10000 Q
b11000 R
b10000 Z
1\
#1020000
0!
#1025000
1!
0%
b1000000 Q
b110 R
b1 T
b1000000 Z
b11111111111111111111111110000000 [
#1030000
0!
#1035000
1!
0%
b11111111111111111111111110000000 P
b100000000 Q
b1 R
1S
b10 T
b100000000 Z
b1000000000 [
#1040000
0!
#1045000
1!
0%
b11 O
b110000000 P
b10000000000 Q
b0 R
0S
b11 T
b10000000000 Z
b0 [
0\
#1050000
0!
#1055000
1!
0%
b110000000 8
1:
0;
0<
b1000 =
b110 >
0?
b0 O
0b
b110 c
b11 d
b111 e
#1060000
0!
#1065000
1!
0%
0:
1B
1C
b11101000 D
#1070000
0!
#1075000
1!
1$
1%
b11101000 *
0B
#1080000
0!
#1085000
1!
0%
#1090000
0!
#1095000
1!
1#
0%
b1010001 (
b10001101 )
#1100000
0!
#1105000
1!
0#
0%
b1010001 +
b10001101 ,
1/
b101 3
b0 4
b1 5
b1101 6
b10 >
1H
b1 J
b1101 K
b11111 W
b10001 X
b11101 Y
b0 a
b10 c
b11 d
b111 e
#1110000
0!
#1115000
1!
0%
0/
1;
0C
0H
b1 O
b0 T
#1120000
0!
#1125000
1!
0$
0%
b10 O
b0 P
b10001 Q
b11101 R
b10001 Z
b10001 [
1\
#1130000
0!
#1135000
1!
0%
b10001 P
b1000100 Q
b111 R
b1 T
b1000100 Z
b11111111111111111111111110111100 [
#1140000
0!
#1145000
1!
0%
b11111111111111111111111111001101 P
b100010000 Q
b1 R
1S
b10 T
b100010000 Z
b1000100000 [
#1150000
0!
#1155000
1!
0%
b11 O
b111101101 P
b10001000000 Q
b0 R
0S
b11 T
b10001000000 Z
b0 [
0\
#1160000
0!
#1165000
1!
0%
b111101101 8
1:
0;
b1110 =
b0 O
#1170000
0!
#1175000
1!
0%
0:
1B
1C
b10101110 D
#1180000
0!
#1185000
1!
1$
1%
b10101110 *
0B
#1190000
0!
#1195000
1!
0%
#1200000
0!
#1205000
1!
1#
0%
b10010000 (
b10101100 )
#1210000
0!
#1215000
1!
0#
0%
b10010000 +
b10101100 ,
1/
11
b1 3
b10 4
b0 5
b1100 6
b0 >
1@
1H
b0 J
b1100 K
1L
b11111 W
b10000 X
b11100 Y
b1 `
b10 a
b0 c
b11 d
b111 e
#1220000
0!
#1225000
1!
0%
0/
1;
0C
0H
b1 O
b0 T
0V
#1230000
0!
#1235000
1!
0$
0%
b10 O
b0 P
b10000 Q
b11100 R
b10000 Z
1\
#1240000
0!
#1245000
1!
0%
b1000000 Q
b111 R
b1 T
b1000000 Z
b11111111111111111111111111000000 [
#1250000
0!
#1255000
1!
0%
b11111111111111111111111111000000 P
b100000000 Q
b1 R
1S
b10 T
b100000000 Z
b1000000000 [
#1260000
0!
#1265000
1!
0%
b11 O
b111000000 P
b10000000000 Q
b0 R
0S
b11 T
b10000000000 Z
b0 [
0\
#1270000
0!
#1275000
1!
0%
b111000000 8
09
1:
0;
b1100 =
b0 O
#1280000
0!
#1285000
1!
0%
0:
1B
1C
b0 D
#1290000
0!
#1295000
1!
1$
1%
b0 *
0B
#1300000
0!
#1305000
1!
0%
#1310000
0!
#1315000
1!
1#
0%
b100101 (
b11100000 )
#1320000
0!
#1325000
1!
0#
0%
b100101 +
b11100000 ,
1/
01
b10 3
b110 4
b101 5
b0 6
b101 >
0@
1H
b101 J
b0 K
0L
b11111 W
b10101 X
b10000 Y
b10 `
b110 a
b101 c
b11 d
b111 e
#1330000
0!
#1335000
1!
0%
0/
1;
0C
0H
b1 O
b0 T
1V
#1340000
0!
#1345000
1!
0$
0%
b10 O
b0 P
b10101 Q
b10000 R
b10101 Z
1\
#1350000
0!
#1355000
1!
0%
b1010100 Q
b100 R
b1 T
b1010100 Z
#1360000
0!
#1365000
1!
0%
b101010000 Q
b1 R
b10 T
b101010000 Z
b101010000 [
#1370000
0!
#1375000
1!
0%
b11 O
b101010000 P
b10101000000 Q
b0 R
b11 T
b10101000000 Z
b0 [
0\
#1380000
0!
#1385000
1!
0%
b101010000 8
19
1:
0;
b101 =
b0 O
#1390000
0!
#1395000
1!
0%
0:
1B
1C
b11010101 D
#1400000
0!
#1405000
1!
1$
1%
b11010101 *
0B
#1410000
0!
#1415000
1!
0%
#1420000
0!
#1425000
1!
1#
0%
b1110101 (
b1110110 )
#1430000
0!
#1435000
1!
0#
0%
b1110101 +
b1110110 ,
1/
02
b111 3
b111 4
b101 5
b110 6
b111 >
1?
1H
b110 K
0M
b11111 W
b10110 Y
b111 `
b111 a
b1011 c
b11 d
b111 e
#1440000
0!
#1445000
1!
0%
0/
1;
0C
0H
b1 O
b0 T
0V
#1450000
0!
#1455000
1!
0$
0%
b10 O
b0 P
b10101 Q
b10110 R
b10101 Z
b11111111111111111111111111010110 [
1\
#1460000
0!
#1465000
1!
0%
b11111111111111111111111111010110 P
b1010100 Q
b101 R
1S
b1 T
b1010100 Z
b10101000 [
#1470000
0!
#1475000
1!
0%
b1111110 P
b101010000 Q
b1 R
0S
b10 T
b101010000 Z
b101010000 [
#1480000
0!
#1485000
1!
0%
b11 O
b111001110 P
b10101000000 Q
b0 R
b11 T
b10101000000 Z
b0 [
0\
#1490000
0!
#1495000
1!
0%
b111001110 8
09
1:
0;
b1100 =
b0 O
#1500000
0!
#1505000
1!
0%
0:
1B
1C
b1110000 D
#1510000
0!
#1515000
1!
1$
1%
b1110000 *
0B
#1520000
0!
#1525000
1!
0%
#1530000
0!
#1535000
1!
1#
0%
b1101101 (
b101 )
#1540000
0!
#1545000
1!
0#
0%
b1101101 +
b101 ,
1/
b110 3
b0 4
b1101 5
b101 6
b11 >
0?
1H
b1101 J
b101 K
b11111 W
b11101 X
b10101 Y
b110 `
b0 a
b11 c
b11 d
b111 e
#1550000
0!
#1555000
1!
0%
0/
1;
0C
0H
b1 O
b0 T
#1560000
0!
#1565000
1!
0$
0%
b10 O
b0 P
b11101 Q
b10101 R
b11101 Z
b11101 [
1\
#1570000
0!
#1575000
1!
0%
b11101 P
b1110100 Q
b101 R
b1 T
b1110100 Z
b1110100 [
#1580000
0!
#1585000
1!
0%
b10010001 P
b111010000 Q
b1 R
b10 T
b111010000 Z
b111010000 [
#1590000
0!
#1595000
1!
0%
b11 O
b1001100001 P
b11101000000 Q
b0 R
b11 T
b11101000000 Z
b0 [
0\
#1600000
0!
#1605000
1!
0%
b1001100001 8
1:
0;
1<
b11 =
b100 >
b0 O
1b
b100 c
b11 d
b111 e
#1610000
0!
#1615000
1!
0%
0:
1B
1C
b1000011 D
#1620000
0!
#1625000
1!
1$
1%
b1000011 *
0B
#1630000
0!
#1635000
1!
0%
#1640000
0!
#1645000
1!
1#
0%
b100011 (
b10010011 )
#1650000
0!
#1655000
1!
0#
0%
b100011 +
b10010011 ,
1/
12
b10 3
b1 4
b11 5
b11 6
b1 >
1H
b11 J
b11 K
1M
b11111 W
b10011 X
b10011 Y
b10 `
b1 a
b1 c
b11 d
b111 e
#1660000
0!
#1665000
1!
0%
0/
1;
0C
0H
b1 O
b0 T
1V
#1670000
0!
#1675000
1!
0$
0%
b10 O
b0 P
b10011 Q
b10011 R
b10011 Z
b11111111111111111111111111101101 [
1\
#1680000
0!
#1685000
1!
0%
b11111111111111111111111111101101 P
b1001100 Q
b100 R
1S
b1 T
b1001100 Z
b1001100 [
#1690000
0!
#1695000
1!
0%
b111001 P
b100110000 Q
b1 R
0S
b10 T
b100110000 Z
b100110000 [
#1700000
0!
#1705000
1!
0%
b11 O
b101101001 P
b10011000000 Q
b0 R
b11 T
b10011000000 Z
b0 [
0\
#1710000
0!
#1715000
1!
0%
b101101001 8
19
1:
0;
0<
b110 =
b0 >
1@
b0 O
0b
b0 c
b11 d
b111 e
#1720000
0!
#1725000
1!
0%
0:
1B
1C
b0 D
#1730000
0!
#1735000
1!
1$
1%
b0 *
0B
#1740000
0!
#1745000
1!
0%
#1750000
0!
#1755000
1!
1#
0%
b11100101 (
b10011000 )
#1760000
0!
#1765000
1!
0#
0%
b11100101 +
b10011000 ,
1/
11
b110 3
b1 4
b101 5
b1000 6
b100 >
0@
1H
b101 J
b1000 K
1L
b11111 W
b10101 X
b11000 Y
b110 `
b100 c
b11 d
b111 e
#1770000
0!
#1775000
1!
0%
0/
1;
0C
0H
b1 O
b0 T
0V
#1780000
0!
#1785000
1!
0$
0%
b10 O
b0 P
b10101 Q
b11000 R
b10101 Z
1\
#1790000
0!
#1795000
1!
0%
b1010100 Q
b110 R
b1 T
b1010100 Z
b11111111111111111111111101011000 [
#1800000
0!
#1805000
1!
0%
b11111111111111111111111101011000 P
b101010000 Q
b1 R
1S
b10 T
b101010000 Z
b1010100000 [
#1810000
0!
#1815000
1!
0%
b11 O
b111111000 P
b10101000000 Q
b0 R
0S
b11 T
b10101000000 Z
b0 [
0\
#1820000
0!
#1825000
1!
0%
b111111000 8
09
1:
0;
b1111 =
b0 O
#1830000
0!
#1835000
1!
0%
0:
1B
1C
b1001111 D
#1840000
0!
#1845000
1!
1$
1%
b1001111 *
0B
#1850000
0!
#1855000
1!
0%
#1860000
0!
#1865000
1!
1#
0%
b1001 (
b1010011 )
#1870000
0!
#1875000
1!
0#
0%
b1001 +
b1010011 ,
1/
01
02
b0 3
b101 4
b1001 5
b11 6
b10 >
1H
b1001 J
b11 K
0L
0M
b11111 W
b11001 X
b10011 Y
b0 `
b101 a
b10 c
b11 d
b111 e
#1880000
0!
#1885000
1!
0%
0/
1;
0C
0H
b1 O
b0 T
#1890000
0!
#1895000
1!
0$
0%
b10 O
b0 P
b11001 Q
b10011 R
b11001 Z
b11111111111111111111111111100111 [
1\
#1900000
0!
#1905000
1!
0%
b11111111111111111111111111100111 P
b1100100 Q
b100 R
1S
b1 T
b1100100 Z
b1100100 [
#1910000
0!
#1915000
1!
0%
b1001011 P
b110010000 Q
b1 R
0S
b10 T
b110010000 Z
b110010000 [
#1920000
0!
#1925000
1!
0%
b11 O
b111011011 P
b11001000000 Q
b0 R
b11 T
b11001000000 Z
b0 [
0\
#1930000
0!
#1935000
1!
0%
b111011011 8
1:
0;
b1101 =
b0 O
#1940000
0!
#1945000
1!
0%
0:
1B
1C
b101101 D
#1950000
0!
#1955000
1!
1$
1%
b101101 *
0B
#1960000
0!
#1965000
1!
0%
#1970000
0!
#1975000
1!
1#
0%
b10011101 (
b101100 )
#1980000
0!
#1985000
1!
0#
0%
b10011101 +
b101100 ,
1/
11
b1 3
b10 4
b1101 5
b1100 6
b0 >
1@
1H
b1101 J
b1100 K
1L
b11111 W
b11101 X
b11100 Y
b1 `
b10 a
b0 c
b11 d
b111 e
#1990000
0!
#1995000
1!
0%
0/
1;
0C
0H
b1 O
b0 T
1V
#2000000
0!
#2005000
1!
0$
0%
b10 O
b0 P
b11101 Q
b11100 R
b11101 Z
1\
#2010000
0!
#2015000
1!
0%
b1110100 Q
b111 R
b1 T
b1110100 Z
b11111111111111111111111110001100 [
#2020000
0!
#2025000
1!
0%
b11111111111111111111111110001100 P
b111010000 Q
b1 R
1S
b10 T
b111010000 Z
b1110100000 [
#2030000
0!
#2035000
1!
0%
b11 O
b1100101100 P
b11101000000 Q
b0 R
0S
b11 T
b11101000000 Z
b0 [
0\
#2040000
0!
#2045000
1!
0%
b1100101100 8
19
1:
0;
1<
b1001 =
b1 >
0@
b0 O
1b
b1 c
b11 d
b111 e
#2050000
0!
#2055000
1!
0%
0:
1B
1C
b10011001 D
#2060000
0!
#2065000
1!
1$
1%
b10011001 *
0B
#2070000
0!
#2075000
1!
0%
#2080000
0!
#2085000
1!
1#
0%
b11100110 (
b10000010 )
#2090000
0!
#2095000
1!
0#
0%
b11100110 +
b10000010 ,
1/
12
b110 3
b0 4
b110 5
b10 6
b100 >
1H
b110 J
b10 K
1M
b11111 W
b10110 X
b10010 Y
b110 `
b0 a
b100 c
b11 d
b111 e
#2100000
0!
#2105000
1!
0%
0/
1;
0C
0H
b1 O
b0 T
0V
#2110000
0!
#2115000
1!
0$
0%
b10 O
b0 P
b10110 Q
b10010 R
b10110 Z
b11111111111111111111111111010100 [
1\
#2120000
0!
#2125000
1!
0%
b11111111111111111111111111010100 P
b1011000 Q
b100 R
1S
b1 T
b1011000 Z
b1011000 [
#2130000
0!
#2135000
1!
0%
b101100 P
b101100000 Q
b1 R
0S
b10 T
b101100000 Z
b101100000 [
#2140000
0!
#2145000
1!
0%
b11 O
b110001100 P
b10110000000 Q
b0 R
b11 T
b10110000000 Z
b0 [
0\
#2150000
0!
#2155000
1!
0%
b110001100 8
09
1:
0;
0<
b1000 =
b11 >
b0 O
0b
b11 c
b11 d
b111 e
#2160000
0!
#2165000
1!
0%
0:
1B
1C
b111000 D
#2170000
0!
#2175000
1!
1$
1%
b111000 *
0B
#2180000
0!
#2185000
1!
0%
#2190000
0!
#2195000
1!
1#
0%
b11000100 (
b11101111 )
#2200000
0!
#2205000
1!
0#
0%
b11000100 +
b11101111 ,
1/
b100 3
b110 4
b100 5
b1111 6
b111 >
1?
1H
b100 J
b1111 K
b11111 W
b10100 X
b11111 Y
b100 `
b110 a
b111 c
b11 d
b111 e
#2210000
0!
#2215000
1!
0%
0/
1;
0C
0H
b1 O
b0 T
#2220000
0!
#2225000
1!
0$
0%
b10 O
b0 P
b10100 Q
b11111 R
b10100 Z
b11111111111111111111111111101100 [
1\
#2230000
0!
#2235000
1!
0%
b11111111111111111111111111101100 P
b1010000 Q
b111 R
1S
b1 T
b1010000 Z
b0 [
#2240000
0!
#2245000
1!
0%
b101000000 Q
b1 R
b10 T
b101000000 Z
b1010000000 [
#2250000
0!
#2255000
1!
0%
b11 O
b1001101100 P
b10100000000 Q
b0 R
0S
b11 T
b10100000000 Z
b0 [
0\
#2260000
0!
#2265000
1!
0%
b1001101100 8
1:
0;
1<
b11 =
b0 O
1b
b1000 c
b11 d
b111 e
#2270000
0!
#2275000
1!
0%
0:
1B
1C
b1110000 D
#2280000
0!
#2285000
1!
1$
1%
b1110000 *
0B
#2290000
0!
#2295000
1!
0%
#2300000
0!
#2305000
1!
1#
0%
b11010101 (
b1100001 )
#2310000
0!
#2315000
1!
0#
0%
b11010101 +
b1100001 ,
1/
02
b101 3
b110 4
b101 5
b1 6
1H
b101 J
b1 K
0M
b11111 W
b10101 X
b10001 Y
b101 `
b1001 c
b11 d
b111 e
#2320000
0!
#2325000
1!
0%
0/
1;
0C
0H
b1 O
b0 T
1V
#2330000
0!
#2335000
1!
0$
0%
b10 O
b0 P
b10101 Q
b10001 R
b10101 Z
b10101 [
1\
#2340000
0!
#2345000
1!
0%
b10101 P
b1010100 Q
b100 R
b1 T
b1010100 Z
b0 [
#2350000
0!
#2355000
1!
0%
b101010000 Q
b1 R
b10 T
b101010000 Z
b101010000 [
#2360000
0!
#2365000
1!
0%
b11 O
b101100101 P
b10101000000 Q
b0 R
b11 T
b10101000000 Z
b0 [
0\
#2370000
0!
#2375000
1!
0%
b101100101 8
19
1:
0;
0<
b110 =
b0 O
0b
b1000 c
b11 d
b111 e
#2380000
0!
#2385000
1!
0%
0:
1B
1C
b11110000 D
#2390000
0!
#2395000
1!
1$
1%
b11110000 *
0B
#2400000
0!
#2405000
1!
0%
#2410000
0!
#2415000
1!
1#
0%
b11100 (
b10111011 )
#2420000
0!
#2425000
1!
0#
0%
b11100 +
b10111011 ,
1/
01
12
b1 3
b11 4
b1100 5
b1011 6
b1 >
0?
1H
b1100 J
b1011 K
0L
1M
b11111 W
b11100 X
b11011 Y
b1 `
b11 a
b1 c
b11 d
b111 e
#2430000
0!
#2435000
1!
0%
0/
1;
0C
0H
b1 O
b0 T
#2440000
0!
#2445000
1!
0$
0%
b10 O
b0 P
b11100 Q
b11011 R
b11100 Z
b11111111111111111111111111100100 [
1\
#2450000
0!
#2455000
1!
0%
b11111111111111111111111111100100 P
b1110000 Q
b110 R
1S
b1 T
b1110000 Z
b11111111111111111111111110010000 [
#2460000
0!
#2465000
1!
0%
b11111111111111111111111101110100 P
b111000000 Q
b1 R
b10 T
b111000000 Z
b1110000000 [
#2470000
0!
#2475000
1!
0%
b11 O
b1011110100 P
b11100000000 Q
b0 R
0S
b11 T
b11100000000 Z
b0 [
0\
#2480000
0!
#2485000
1!
0%
b1011110100 8
1:
0;
1<
b111 =
b10 >
b0 O
1b
b10 c
b11 d
b111 e
#2490000
0!
#2495000
1!
0%
0:
1B
1C
b10100111 D
#2500000
0!
#2505000
1!
1$
1%
b10100111 *
0B
#2510000
0!
#2515000
1!
0%
#2520000
0!
#2525000
1!
1#
0%
b11100100 (
b11100000 )
#2530000
0!
#2535000
1!
0#
0%
b11100100 +
b11100000 ,
1/
11
b110 3
b110 4
b100 5
b0 6
b111 >
1?
1H
b100 J
b0 K
1L
b11111 W
b10100 X
b10000 Y
b110 `
b110 a
b1010 c
b11 d
b111 e
#2540000
0!
#2545000
1!
0%
0/
1;
0C
0H
b1 O
b0 T
0V
#2550000
0!
#2555000
1!
0$
0%
b10 O
b0 P
b10100 Q
b10000 R
b10100 Z
1\
#2560000
0!
#2565000
1!
0%
b1010000 Q
b100 R
b1 T
b1010000 Z
#2570000
0!
#2575000
1!
0%
b101000000 Q
b1 R
b10 T
b101000000 Z
b101000000 [
#2580000
0!
#2585000
1!
0%
b11 O
b101000000 P
b10100000000 Q
b0 R
b11 T
b10100000000 Z
b0 [
0\
#2590000
0!
#2595000
1!
0%
b101000000 8
09
1:
0;
0<
b100 =
b0 O
0b
b1001 c
b11 d
b111 e
#2600000
0!
#2605000
1!
0%
0:
1B
1C
b1110000 D
#2610000
0!
#2615000
1!
1$
1%
b1110000 *
0B
#2620000
0!
#2625000
1!
0%
#2630000
0!
#2635000
1!
1#
0%
b10101011 (
b10111001 )
#2640000
0!
#2645000
1!
0#
0%
b10101011 +
b10111001 ,
1/
b10 3
b11 4
b1011 5
b1001 6
b10 >
0?
1H
b1011 J
b1001 K
b11111 W
b11011 X
b11001 Y
b10 `
b11 a
b10 c
b11 d
b111 e
#2650000
0!
#2655000
1!
0%
0/
1;
0C
0H
b1 O
b0 T
#2660000
0!
#2665000
1!
0$
0%
b10 O
b0 P
b11011 Q
b11001 R
b11011 Z
b11011 [
1\
#2670000
0!
#2675000
1!
0%
b11011 P
b1101100 Q
b110 R
b1 T
b1101100 Z
b11111111111111111111111100101000 [
#2680000
0!
#2685000
1!
0%
b11111111111111111111111101000011 P
b110110000 Q
b1 R
1S
b10 T
b110110000 Z
b1101100000 [
#2690000
0!
#2695000
1!
0%
b11 O
b1010100011 P
b11011000000 Q
b0 R
0S
b11 T
b11011000000 Z
b0 [
0\
#2700000
0!
#2705000
1!
0%
b1010100011 8
1:
0;
1<
b101 =
b11 >
b0 O
1b
b11 c
b11 d
b111 e
#2710000
0!
#2715000
1!
0%
0:
1B
1C
b110101 D
#2720000
0!
#2725000
1!
1$
1%
b110101 *
0B
#2730000
0!
#2735000
1!
0%
#2740000
0!
#2745000
1!
1#
0%
b1000010 (
b11000111 )
#2750000
0!
#2755000
1!
0#
0%
b1000010 +
b11000111 ,
1/
01
b100 3
b100 4
b10 5
b111 6
b110 >
1H
b10 J
b111 K
0L
b11111 W
b10010 X
b10111 Y
b100 `
b100 a
b110 c
b11 d
b111 e
#2760000
0!
#2765000
1!
0%
0/
1;
0C
0H
b1 O
b0 T
1V
#2770000
0!
#2775000
1!
0$
0%
b10 O
b0 P
b10010 Q
b10111 R
b10010 Z
b11111111111111111111111111101110 [
1\
#2780000
0!
#2785000
1!
0%
b11111111111111111111111111101110 P
b1001000 Q
b101 R
1S
b1 T
b1001000 Z
b10010000 [
#2790000
0!
#2795000
1!
0%
b1111110 P
b100100000 Q
b1 R
0S
b10 T
b100100000 Z
b100100000 [
#2800000
0!
#2805000
1!
0%
b11 O
b110011110 P
b10010000000 Q
b0 R
b11 T
b10010000000 Z
b0 [
0\
#2810000
0!
#2815000
1!
0%
b110011110 8
19
1:
0;
0<
b1001 =
b101 >
b0 O
0b
b101 c
b11 d
b111 e
#2820000
0!
#2825000
1!
0%
0:
1B
1C
b11011001 D
#2830000
0!
#2835000
1!
1$
1%
b11011001 *
0B
#2840000
0!
#2845000
1!
0%
#2850000
0!
#2855000
1!
1#
0%
b1110101 (
b100110 )
#2860000
0!
#2865000
1!
0#
0%
b1110101 +
b100110 ,
1/
02
b111 3
b10 4
b101 5
b110 6
b110 >
1H
b101 J
b110 K
0M
b11111 W
b10101 X
b10110 Y
b111 `
b10 a
b110 c
b11 d
b111 e
#2870000
0!
#2875000
1!
0%
0/
1;
0C
0H
b1 O
b0 T
0V
#2880000
0!
#2885000
1!
0$
0%
b10 O
b0 P
b10101 Q
b10110 R
b10101 Z
b11111111111111111111111111010110 [
1\
#2890000
0!
#2895000
1!
0%
b11111111111111111111111111010110 P
b1010100 Q
b101 R
1S
b1 T
b1010100 Z
b10101000 [
#2900000
0!
#2905000
1!
0%
b1111110 P
b101010000 Q
b1 R
0S
b10 T
b101010000 Z
b101010000 [
#2910000
0!
#2915000
1!
0%
b11 O
b111001110 P
b10101000000 Q
b0 R
b11 T
b10101000000 Z
b0 [
0\
#2920000
0!
#2925000
1!
0%
b111001110 8
09
1:
0;
b1100 =
b0 O
#2930000
0!
#2935000
1!
0%
0:
1B
1C
b1101100 D
#2940000
0!
#2945000
1!
1$
1%
b1101100 *
0B
#2950000
0!
#2955000
1!
0%
#2960000
0!
#2965000
1!
1#
0%
b10100111 (
b100000 )
#2970000
0!
#2975000
1!
0#
0%
b10100111 +
b100000 ,
1/
11
b10 3
b10 4
b111 5
b0 6
b1 >
1H
b111 J
b0 K
1L
b11111 W
b10111 X
b10000 Y
b10 `
b1 c
b11 d
b111 e
#2980000
0!
#2985000
1!
0%
0/
1;
0C
0H
b1 O
b0 T
1V
#2990000
0!
#2995000
1!
0$
0%
b10 O
b0 P
b10111 Q
b10000 R
b10111 Z
1\
#3000000
0!
#3005000
1!
0%
b1011100 Q
b100 R
b1 T
b1011100 Z
#3010000
0!
#3015000
1!
0%
b101110000 Q
b1 R
b10 T
b101110000 Z
b101110000 [
#3020000
0!
#3025000
1!
0%
b11 O
b101110000 P
b10111000000 Q
b0 R
b11 T
b10111000000 Z
b0 [
0\
#3030000
0!
#3035000
1!
0%
b101110000 8
19
1:
0;
b111 =
b0 O
#3040000
0!
#3045000
1!
0%
0:
1B
1C
b10010111 D
#3050000
0!
#3055000
1!
1$
1%
b10010111 *
0B
#3060000
0!
#3065000
1!
0%
#3070000
0!
#3075000
1!
1#
0%
b11011111 (
b11101001 )
#3080000
0!
#3085000
1!
0#
0%
b11011111 +
b11101001 ,
1/
12
b101 3
b110 4
b1111 5
b1001 6
b111 >
1?
1H
b1111 J
b1001 K
1M
b11111 W
b11111 X
b11001 Y
b101 `
b110 a
b1000 c
b11 d
b111 e
#3090000
0!
#3095000
1!
0%
0/
1;
0C
0H
b1 O
b0 T
0V
#3100000
0!
#3105000
1!
0$
0%
b10 O
b0 P
b11111 Q
b11001 R
b11111 Z
b11111 [
1\
#3110000
0!
#3115000
1!
0%
b11111 P
b1111100 Q
b110 R
b1 T
b1111100 Z
b11111111111111111111111100001000 [
#3120000
0!
#3125000
1!
0%
b11111111111111111111111100100111 P
b111110000 Q
b1 R
1S
b10 T
b111110000 Z
b1111100000 [
#3130000
0!
#3135000
1!
0%
b11 O
b1100000111 P
b11111000000 Q
b0 R
0S
b11 T
b11111000000 Z
b0 [
0\
#3140000
0!
#3145000
1!
0%
b1100000111 8
09
1:
0;
1<
b1000 =
b0 O
1b
b1001 c
b11 d
b111 e
#3150000
0!
#3155000
1!
0%
0:
1B
1C
b1110000 D
#3160000
0!
#3165000
1!
1$
1%
b1110000 *
0B
#3170000
0!
#3175000
1!
0%
#3180000
0!
#3185000
1!
1#
0%
b11100111 (
b1010100 )
#3190000
0!
#3195000
1!
0#
0%
b11100111 +
b1010100 ,
1/
02
b110 3
b101 4
b111 5
b100 6
1H
b111 J
b100 K
0M
b11111 W
b10111 X
b10100 Y
b110 `
b101 a
b1001 c
b11 d
b111 e
#3200000
0!
#3205000
1!
0%
0/
1;
0C
0H
b1 O
b0 T
1V
#3210000
0!
#3215000
1!
0$
0%
b10 O
b0 P
b10111 Q
b10100 R
b10111 Z
1\
#3220000
0!
#3225000
1!
0%
b1011100 Q
b101 R
b1 T
b1011100 Z
b1011100 [
#3230000
0!
#3235000
1!
0%
b1011100 P
b101110000 Q
b1 R
b10 T
b101110000 Z
b101110000 [
#3240000
0!
#3245000
1!
0%
b11 O
b111001100 P
b10111000000 Q
b0 R
b11 T
b10111000000 Z
b0 [
0\
#3250000
0!
#3255000
1!
0%
b111001100 8
19
1:
0;
0<
b1100 =
b0 O
0b
b1000 c
b11 d
b111 e
#3260000
0!
#3265000
1!
0%
0:
1B
1C
b11110000 D
#3270000
0!
#3275000
1!
1$
1%
b11110000 *
0B
#3280000
0!
#3285000
1!
0%
#3290000
0!
#3295000
1!
1#
0%
b1111 (
b10001110 )
#3300000
0!
#3305000
1!
0#
0%
b1111 +
b10001110 ,
1/
01
12
b0 3
b0 4
b1111 5
b1110 6
b0 >
0?
1@
1H
b1111 J
b1110 K
0L
1M
b11111 W
b11111 X
b11110 Y
b0 `
b0 a
b11111111101 c
b11 d
b111 e
#3310000
0!
#3315000
1!
0%
0/
1;
0C
0H
b1 O
b0 T
#3320000
0!
#3325000
1!
0$
0%
b10 O
b0 P
b11111 Q
b11110 R
b11111 Z
b11111111111111111111111111000010 [
1\
#3330000
0!
#3335000
1!
0%
b11111111111111111111111111000010 P
b1111100 Q
b111 R
1S
b1 T
b1111100 Z
b0 [
#3340000
0!
#3345000
1!
0%
b111110000 Q
b1 R
b10 T
b111110000 Z
b1111100000 [
#3350000
0!
