FP16_base/vcd/fp16_mul_10000.vcd
$date
   Thu Apr 16 22:15:16 2026
$end
$version
  2019.2
$end
$timescale
  1ps
$end
$scope module tb_fp16_multiplier $end
$var reg 1 ! clk $end
$var reg 1 " rst_n $end
$var reg 1 # in_valid $end
$var reg 16 $ a [15:0] $end
$var reg 16 % b [15:0] $end
$var reg 1 & out_valid $end
$var reg 16 ' y [15:0] $end
$var reg 32 ( q $end
$var reg 32 ) cycle $end
$var reg 32 * checked $end
$var reg 32 + errors $end
$var reg 32 , total_latency $end
$scope module dut $end
$var wire 1 - clk $end
$var wire 1 . rst_n $end
$var wire 1 / in_valid $end
$var wire 16 0 a [15:0] $end
$var wire 16 1 b [15:0] $end
$var reg 1 & out_valid $end
$var reg 16 ' y [15:0] $end
$var reg 16 2 a0 [15:0] $end
$var reg 16 3 b0 [15:0] $end
$var reg 1 4 v0 $end
$var reg 1 5 sign1_q $end
$var reg 1 6 sign1_d $end
$var reg 2 7 special1_q [1:0] $end
$var reg 2 8 special1_d [1:0] $end
$var reg 11 9 sig_a1_q [10:0] $end
$var reg 11 : sig_a1_d [10:0] $end
$var reg 11 ; sig_b1_q [10:0] $end
$var reg 11 < sig_b1_d [10:0] $end
$var reg 9 = exp_a1_q [8:0] $end
$var reg 9 > exp_a1_d [8:0] $end
$var reg 9 ? exp_b1_q [8:0] $end
$var reg 9 @ exp_b1_d [8:0] $end
$var reg 1 A v1 $end
$var reg 16 B result2_q [15:0] $end
$var reg 16 C result2_d [15:0] $end
$var reg 1 D v2 $end
$scope begin Block67_2 $end
$var reg 1 E a_nan $end
$var reg 1 F a_inf $end
$var reg 1 G a_zero $end
$var reg 1 H b_nan $end
$var reg 1 I b_inf $end
$var reg 1 J b_zero $end
$var reg 4 K shift_a [3:0] $end
$var reg 4 L shift_b [3:0] $end
$upscope $end
$scope begin Block142_5 $end
$var reg 22 M prod [21:0] $end
$var reg 22 N prod_norm [21:0] $end
$var reg 11 O mant11 [10:0] $end
$var reg 12 P mant12 [11:0] $end
$var reg 1 Q round_up $end
$var reg 10 R exp_sum [9:0] $end
$var reg 10 S exp_field [9:0] $end
$upscope $end
$scope function lzc10 $end
$var reg 32 T lzc10 $end
$var reg 10 U x [9:0] $end
$var reg 32 V i $end
$var reg 1 W found $end
$upscope $end
$upscope $end
$scope begin Block176_12 $end
$var reg 32 X i $end
$upscope $end
$scope begin Block230_14 $end
$var reg 128 Y item [15:0] $end
$var reg 32 Z latency $end
$upscope $end
$scope function lzc10 $end
$var reg 32 T lzc10 $end
$var reg 10 U x [9:0] $end
$var reg 32 V i $end
$var reg 1 W found $end
$upscope $end
$scope function fp16_mul_model $end
$var reg 16 [ fp16_mul_model [15:0] $end
$var reg 16 \ aa [15:0] $end
$var reg 16 ] bb [15:0] $end
$var reg 1 W sign $end
$var reg 1 ^ a_nan $end
$var reg 1 _ a_inf $end
$var reg 1 ` a_zero $end
$var reg 1 a b_nan $end
$var reg 1 b b_inf $end
$var reg 1 c b_zero $end
$var reg 11 d sig_a [10:0] $end
$var reg 11 e sig_b [10:0] $end
$var reg 9 f exp_a [8:0] $end
$var reg 9 g exp_b [8:0] $end
$var reg 4 h shift_a [3:0] $end
$var reg 4 i shift_b [3:0] $end
$var reg 22 j prod [21:0] $end
$var reg 22 k prod_norm [21:0] $end
$var reg 11 l mant11 [10:0] $end
$var reg 12 m mant12 [11:0] $end
$var reg 1 n round_up $end
$var reg 10 o exp_sum [9:0] $end
$var reg 10 p exp_field [9:0] $end
$upscope $end
$scope function rand_fp16 $end
$var reg 16 [ rand_fp16 [15:0] $end
$upscope $end
$scope task send_vec $end
$var reg 16 q aa [15:0] $end
$var reg 16 r bb [15:0] $end
$var reg 128 s item [15:0] $end
$upscope $end
$upscope $end
$enddefinitions $end
#0
$dumpvars
0!
0"
0#
b0 $
b0 %
0&
b0 '
b0 (
b0 )
b0 *
b0 +
b0 ,
0-
0.
0/
b0 0
b0 1
b0 2
b0 3
04
05
06
b0 7
b1 8
b0 9
b0 :
b0 ;
b0 <
b0 =
b0 >
b0 ?
b0 @
0A
b0 B
b11110000000000 C
0D
0E
0F
1G
0H
0I
1J
bx K
bx L
b0 M
b0 N
b0 O
b0 P
0Q
b0 R
b1111 S
b110001011001011101000 T
b0 U
b0 V
0W
b0 X
b0xxxxxxxxxxxxxxxx0000000000000000xxxxxxxxxxxxxxxx0000000000000000xxxxxxxxxxxxxxxx00000000000000000000000000000000 Y
b0 Z
b1011001011101000 [
b0 \
b0 ]
0^
0_
0`
0a
0b
0c
b1000 d
b1000 e
b1000 f
b0 g
b0 h
b0z i
bx j
b100 k
b0 l
b0 m
0n
b0 o
b0 p
b0 q
b0 r
b0 s
$end
#5000
1!
1-
#10000
0!
0-
#15000
1!
1-
#20000
0!
0-
#25000
1!
1-
#30000
0!
0-
#35000
1!
1"
b1 )
1-
1.
b1 7
b11110000000000 B
b0 C
#40000
0!
1#
b0 $
b11110000000000 %
0-
1/
b11110000000000 1
#45000
1!
b11110000000000 '
b10 )
1-
b11110000000000 3
14
b1 8
b10000000000 <
b0 B
0J
#50000
0!
b1000000000000000 $
b11110000000000 %
0-
b1000000000000000 0
#55000
1!
b0 '
b11 )
1-
b1000000000000000 2
16
b1 8
b10000000000 ;
b10000000000 <
1A
#60000
0!
b11110000000000 $
b11110000000000 %
0-
b11110000000000 0
#65000
1!
b100 )
1-
b11110000000000 2
15
06
b0 8
b10000000000 :
b10000000000 <
b1000000000000000 C
1D
0G
#70000
0!
b1100000000000000 $
b100000000000000 %
0-
b1100000000000000 0
b100000000000000 1
#75000
1!
1&
b101 )
1-
b1100000000000000 2
b100000000000000 3
05
16
b0 7
b10000000000 9
b10000000000 :
b10000000000 <
b1 >
b1 @
b1000000000000000 B
b11110000000000 C
b100000000000000000000 M
b100000000000000000000 N
b10000000000 O
b10000000000 P
#80000
0!
b111110000000000 $
b11110000000000 %
0-
b111110000000000 0
b11110000000000 1
#85000
1!
b1000000000000000 '
b110 )
b1 *
b100 ,
1-
b111110000000000 2
b11110000000000 3
15
06
b10 8
b0 :
b10000000000 <
b1 =
b0 >
b1 ?
b0 @
b11110000000000 B
b1100010000000000 C
1F
b10 R
b10001 S
b111100000000000000000000000000000000000000000000000000000000000000000000000010 Y
b100 Z
#90000
0!
b111110000000000 $
b0 %
0-
b0 1
#95000
1!
b11110000000000 '
b111 )
b10 *
b1000 ,
1-
b0 3
05
b10 7
b11 8
b0 9
b0 <
b0 =
b0 ?
b1100010000000000 B
b111110000000000 C
1J
b1000000000000000000000000000000000111100000000000000000000000000100000000000000000000000000000000000000000000011 Y
#100000
0!
b111111000000000 $
b11110000000000 %
0-
b111111000000000 0
b11110000000000 1
#105000
1!
b1100010000000000 '
b1000 )
b11 *
b1100 ,
1-
b111111000000000 2
b11110000000000 3
b11 7
b11 8
b0 ;
b10000000000 <
b111110000000000 B
b111111000000000 C
1E
0F
0J
b11110000000000000000000000000000111100000000000000000000000000001111000000000000000000000000000000000000000100 Y
#110000
0!
b10000000000 $
b10000000000 %
0-
b10000000000 0
b10000000000 1
#115000
1!
b111110000000000 '
b1001 )
b100 *
b10000 ,
1-
b10000000000 2
b10000000000 3
b0 8
b10000000000 :
b10000000000 ;
b10000000000 <
b111110010 >
b111110010 @
b111111000000000 B
b111111000000000 C
0E
b1100000000000000000000000000000001000000000000000000000000000000110001000000000000000000000000000000000000000101 Y
#120000
0!
b1 $
b11110000000000 %
0-
b1 0
b11110000000000 1
#125000
1!
b111111000000000 '
b1010 )
b101 *
b10100 ,
1-
b1 2
b11110000000000 3
b0 7
b10000000000 9
b10000000000 :
b10000000000 <
b111110010 =
b111101000 >
b111110010 ?
b0 @
b0 C
b1010 K
b1111100100 R
b1111110011 S
b111110000000000000000000000000000111100000000000000000000000000011111000000000000000000000000000000000000000110 Y
#130000
0!
b111101111111111 $
b11110000000000 %
0-
b111101111111111 0
b1010 X
#135000
1!
b1011 )
b110 *
b11000 ,
1-
b111101111111111 2
b11111111111 :
b10000000000 <
b111101000 =
b1111 >
b0 ?
b0 B
b1111101000 R
b1111110111 S
b111110000000000000000000000000000000000000000000000000000000000011111100000000000000000000000000000000000000111 Y
#140000
0!
b1 $
b0 %
0-
b1 0
b0 1
b1011 X
#145000
1!
b0 '
b1100 )
b111 *
b11100 ,
1-
b1 2
b0 3
b1 8
b11111111111 9
b10000000000 :
b0 <
b1111 =
b111101000 >
b111101111111111 C
1J
b111111111110000000000 M
b111111111110000000000 N
b11111111111 O
b11111111111 P
b1111 R
b11110 S
b111111000000000000000000000000000111100000000000000000000000000011111100000000000000000000000000000000000001000 Y
#150000
0!
b0 $
b1 %
0-
b0 0
b1 1
b1100 X
#155000
1!
b1101 )
b1000 *
b100000 ,
1-
b0 2
b1 3
b1 7
b1 8
b10000000000 9
b0 :
b0 ;
b10000000000 <
b111101000 =
b0 >
b111101000 @
b111101111111111 B
b0 C
1G
0J
b1010 L
b10000000000000000000000000000000100000000000000000000000000000000000000000000000000000000000000000000001001 Y
#160000
0!
b1 $
b0 %
0-
b1 0
b0 1
b1101 X
#165000
1!
b111101111111111 '
b1110 )
b1001 *
b100100 ,
1-
b1 2
b0 3
b1 8
b0 9
b10000000000 :
b10000000000 ;
b0 <
b0 =
b111101000 >
b111101000 ?
b0 @
b0 B
0G
1J
b1000000000000000000111100000000000000000000000000000000000000000000000000000000000000000000001010 Y
#170000
0!
b1 $
b0 %
0-
b1110 X
#175000
1!
b0 '
b1111 )
b1010 *
b101000 ,
1-
b10000000000 9
b0 ;
b111101000 =
b0 ?
b111101111111111000000000000000000111100000000000000000000000000011110111111111100000000000000000000000000001011 Y
#180000
0!
b0 $
b0 %
0-
b0 0
b1111 X
#185000
1!
b10000 )
b1011 *
b101100 ,
1-
b0 2
b1 8
b0 :
b0 >
1G
b1000000000000000000000000000000000000000000000000000000000000000000000000000000000000000000001100 Y
#190000
0!
b1 $
b1 %
0-
b1 0
b1 1
b10000 X
#195000
1!
b10001 )
b1100 *
b110000 ,
1-
b1 2
b1 3
b0 8
b0 9
b10000000000 :
b10000000000 <
b0 =
b111101000 >
b111101000 @
0G
0J
b10000000000000000000000000000000000000000000000000000000000001101 Y
#200000
0!
b0 $
b1 %
0-
b0 0
b10001 X
#205000
1!
b10010 )
b1101 *
b110100 ,
1-
b0 2
b0 7
b1 8
b10000000000 9
b0 :
b10000000000 ;
b10000000000 <
b111101000 =
b0 >
b111101000 ?
b111101000 @
1G
b100000000000000000000 M
b100000000000000000000 N
b10000000000 O
b10000000000 P
b1111010000 R
b1111011111 S
b1000000000000000000000000000000000000000000000000000000000000000000000000000000000000000000001110 Y
#210000
0!
b0 $
b1 %
0-
b10010 X
#215000
1!
b10011 )
b1110 *
b111000 ,
1-
b1 7
b0 9
b0 =
b1000000000000000000000000000000000000000000000000000000000000000000000000000000000000000000001111 Y
#220000
0!
b1 $
b1 %
0-
b1 0
b10011 X
#225000
1!
b10100 )
b1111 *
b111100 ,
1-
b1 2
b0 8
b10000000000 :
b10000000000 <
b111101000 >
b111101000 @
0G
b10000 Y
#230000
0!
b0 $
b1 %
0-
b0 0
b10100 X
#235000
1!
b10101 )
b10000 *
b1000000 ,
1-
b0 2
b0 7
b1 8
b10000000000 9
b0 :
b10000000000 <
b111101000 =
b0 >
b111101000 @
1G
b1000000000000000000000000000000010000000000000000000000000000000000000000000000000000000000010001 Y
#240000
0!
b0 $
b0 %
0-
b0 1
b10101 X
#245000
1!
b10110 )
b10001 *
b1000100 ,
1-
b0 3
b1 7
b1 8
b0 9
b0 <
b0 =
b0 @
1J
b10000000000000000000000000000000000000000000000000000000000010010 Y
#250000
0!
b0 $
b1 %
0-
b1 1
b10110 X
#255000
1!
b10111 )
b10010 *
b1001000 ,
1-
b1 3
b1 8
b0 ;
b10000000000 <
b0 ?
b111101000 @
0J
b10000000000000000000000000000000000000000000000000000000000010011 Y
#260000
0!
b0 $
b1 %
0-
b10111 X
#265000
1!
b11000 )
b10011 *
b1001100 ,
1-
b10000000000 ;
b111101000 ?
b1000000000000000000000000000000010000000000000000000000000000000000000000000000000000000000010100 Y
#270000
0!
b1 $
b0 %
0-
b1 0
b0 1
b11000 X
#275000
1!
b11001 )
b10100 *
b1010000 ,
1-
b1 2
b0 3
b1 8
b10000000000 :
b0 <
b111101000 >
b0 @
0G
1J
b10000000000000000000000000000000000000000000000000000000000010101 Y
#280000
0!
b1 $
b1 %
0-
b1 1
b11001 X
#285000
1!
b11010 )
b10101 *
b1010100 ,
1-
b1 3
b0 8
b10000000000 9
b10000000000 :
b0 ;
b10000000000 <
b111101000 =
b111101000 >
b0 ?
b111101000 @
0J
b10110 Y
#290000
0!
b0 $
b1 %
0-
b0 0
b11010 X
#295000
1!
b11011 )
b10110 *
b1011000 ,
1-
b0 2
b0 7
b1 8
b0 :
b10000000000 ;
b10000000000 <
b0 >
b111101000 ?
b111101000 @
1G
b10000000000000000000000000000000000000000000000000000000000010111 Y
#300000
0!
b0 $
b1 %
0-
b11011 X
#305000
1!
b11100 )
b10111 *
b1011100 ,
1-
b1 7
b0 9
b0 =
b10000000000000000000000000000000000000000000000000000000000011000 Y
#310000
0!
b0 $
b0 %
0-
b0 1
b11100 X
#315000
1!
b11101 )
b11000 *
b1100000 ,
1-
b0 3
b1 8
b0 <
b0 @
1J
b1000000000000000000000000000000000000000000000000000000000000000000000000000000000000000000011001 Y
#320000
0!
b0 $
b0 %
0-
b11101 X
#325000
1!
b11110 )
b11001 *
b1100100 ,
1-
b0 ;
b0 ?
b1000000000000000000000000000000010000000000000000000000000000000000000000000000000000000000011010 Y
#330000
0!
b1 $
b1 %
0-
b1 0
b1 1
b11110 X
#335000
1!
b11111 )
b11010 *
b1101000 ,
1-
b1 2
b1 3
b0 8
b10000000000 :
b10000000000 <
b111101000 >
b111101000 @
0G
0J
b10000000000000000000000000000000000000000000000000000000000011011 Y
#340000
0!
b1 $
b1 %
0-
b11111 X
#345000
1!
b100000 )
b11011 *
b1101100 ,
1-
b0 7
b10000000000 9
b10000000000 ;
b111101000 =
b111101000 ?
b10000000000000000000000000000000000000000000000000000000000011100 Y
#350000
0!
b1 $
b1 %
0-
b100000 X
#355000
1!
b100001 )
b11100 *
b1110000 ,
1-
b11101 Y
#360000
0!
b1 $
b0 %
0-
b0 1
b100001 X
#365000
1!
b100010 )
b11101 *
b1110100 ,
1-
b0 3
b1 8
b10000000000 :
b0 <
b111101000 >
b0 @
1J
b11110 Y
#370000
0!
b0 $
b0 %
0-
b0 0
b100010 X
#375000
1!
b100011 )
b11110 *
b1111000 ,
1-
b0 2
b1 7
b1 8
b0 :
b0 ;
b0 >
b0 ?
1G
b1000000000000000000000000000000010000000000000000000000000000000000000000000000000000000000011111 Y
#380000
0!
b0 $
b1 %
0-
b1 1
b100011 X
#385000
1!
b100100 )
b11111 *
b1111100 ,
1-
b1 3
b1 8
b0 9
b10000000000 <
b0 =
b111101000 @
0J
b1000000000000000000000000000000010000000000000000000000000000000000000000000000000000000000100000 Y
#390000
0!
b0 $
b1 %
0-
b100100 X
#395000
1!
b100101 )
b100000 *
b10000000 ,
1-
b10000000000 ;
b111101000 ?
b1000000000000000000000000000000010000000000000000000000000000000000000000000000000000000000100001 Y
#400000
0!
b0 $
b0 %
0-
b0 1
b100101 X
#405000
1!
b100110 )
b100001 *
b10000100 ,
1-
b0 3
b1 8
b0 <
b0 @
1J
b1000000000000000000000000000000000000000000000000000000000000000000000000000000000000000000100010 Y
#410000
0!
b0 $
b0 %
0-
b100110 X
#415000
1!
b100111 )
b100010 *
b10001000 ,
1-
b0 ;
b0 ?
b100011 Y
#420000
0!
b0 $
b0 %
0-
b100111 X
#425000
1!
b101000 )
b100011 *
b10001100 ,
1-
b10000000000000000000000000000000000000000000000000000000000100100 Y
#430000
0!
b1 $
b0 %
0-
b1 0
b101000 X
#435000
1!
b101001 )
b100100 *
b10010000 ,
1-
b1 2
b1 8
b10000000000 :
b111101000 >
0G
b10000000000000000000000000000000000000000000000000000000000100101 Y
#440000
0!
b0 $
b1 %
0-
b0 0
b1 1
b101001 X
#445000
1!
b101010 )
b100101 *
b10010100 ,
1-
b0 2
b1 3
b1 8
b10000000000 9
b0 :
b10000000000 <
b111101000 =
b0 >
b111101000 @
1G
0J
b100110 Y
#450000
0!
b0 $
b0 %
0-
b0 1
b101010 X
#455000
1!
b101011 )
b100110 *
b10011000 ,
1-
b0 3
b1 8
b0 9
b10000000000 ;
b0 <
b0 =
b111101000 ?
b0 @
1J
b100111 Y
#460000
0!
b1 $
b1 %
0-
b1 0
b1 1
b101011 X
#465000
1!
b101100 )
b100111 *
b10011100 ,
1-
b1 2
b1 3
b0 8
b10000000000 :
b0 ;
b10000000000 <
b111101000 >
b0 ?
b111101000 @
0G
0J
b101000 Y
#470000
0!
b0 $
b0 %
0-
b0 0
b0 1
b101100 X
#475000
1!
b101101 )
b101000 *
b10100000 ,
1-
b0 2
b0 3
b0 7
b1 8
b10000000000 9
b0 :
b10000000000 ;
b0 <
b111101000 =
b0 >
b111101000 ?
b0 @
1G
1J
b1000000000000000000000000000000000000000000000000000000000000000000000000000000000000000000101001 Y
#480000
0!
b1 $
b0 %
0-
b1 0
b101101 X
#485000
1!
b101110 )
b101001 *
b10100100 ,
1-
b1 2
b1 7
b1 8
b0 9
b10000000000 :
b0 ;
b0 =
b111101000 >
b0 ?
0G
b10000000000000000000000000000000000000000000000000000000000101010 Y
#490000
0!
b0 $
b0 %
0-
b0 0
b101110 X
#495000
1!
b101111 )
b101010 *
b10101000 ,
1-
b0 2
b1 8
b10000000000 9
b0 :
b111101000 =
b0 >
1G
b101011 Y
#500000
0!
b0 $
b1 %
0-
b1 1
b101111 X
#505000
1!
b110000 )
b101011 *
b10101100 ,
1-
b1 3
b1 8
b0 9
b10000000000 <
b0 =
b111101000 @
0J
b1000000000000000000000000000000010000000000000000000000000000000000000000000000000000000000101100 Y
#510000
0!
b0 $
b1 %
0-
b110000 X
#515000
1!
b110001 )
b101100 *
b10110000 ,
1-
b10000000000 ;
b111101000 ?
b101101 Y
#520000
0!
b1 $
b1 %
0-
b1 0
b110001 X
#525000
1!
b110010 )
b101101 *
b10110100 ,
1-
b1 2
b0 8
b10000000000 :
b10000000000 <
b111101000 >
b111101000 @
0G
b1000000000000000000000000000000000000000000000000000000000000000000000000000000000000000000101110 Y
#530000
0!
b1 $
b1 %
0-
b110010 X
#535000
1!
b110011 )
b101110 *
b10111000 ,
1-
b0 7
b10000000000 9
b111101000 =
b101111 Y
#540000
0!
b0 $
b0 %
0-
b0 0
b0 1
b110011 X
#545000
1!
b110100 )
b101111 *
b10111100 ,
1-
b0 2
b0 3
b1 8
b0 :
b0 <
b0 >
b0 @
1G
1J
b10000000000000000000000000000000000000000000000000000000000110000 Y
#550000
0!
b0 $
b1 %
0-
b1 1
b110100 X
#555000
1!
b110101 )
b110000 *
b11000000 ,
1-
b1 3
b1 7
b1 8
b0 9
b0 ;
b10000000000 <
b0 =
b0 ?
b111101000 @
0J
b10000000000000000000000000000000000000000000000000000000000110001 Y
#560000
0!
b1 $
b0 %
0-
b1 0
b0 1
b110101 X
#565000
1!
b110110 )
b110001 *
b11000100 ,
1-
b1 2
b0 3
b1 8
b10000000000 :
b10000000000 ;
b0 <
b111101000 >
b111101000 ?
b0 @
0G
1J
b1000000000000000000000000000000010000000000000000000000000000000000000000000000000000000000110010 Y
#570000
0!
b1 $
b1 %
0-
b1 1
b110110 X
#575000
1!
b110111 )
b110010 *
b11001000 ,
1-
b1 3
b0 8
b10000000000 9
b10000000000 :
b0 ;
b10000000000 <
b111101000 =
b111101000 >
b0 ?
b111101000 @
0J
b1000000000000000000000000000000010000000000000000000000000000000000000000000000000000000000110011 Y
#580000
0!
b0 $
b1 %
0-
b0 0
b110111 X
#585000
1!
b111000 )
b110011 *
b11001100 ,
1-
b0 2
b0 7
b1 8
b0 :
b10000000000 ;
b10000000000 <
b0 >
b111101000 ?
b111101000 @
1G
b110100 Y
#590000
0!
b0 $
b1 %
0-
b111000 X
#595000
1!
b111001 )
b110100 *
b11010000 ,
1-
b1 7
b0 9
b0 =
b10000000000000000000000000000000000000000000000000000000000110101 Y
#600000
0!
b1 $
b1 %
0-
b1 0
b111001 X
#605000
1!
b111010 )
b110101 *
b11010100 ,
1-
b1 2
b0 8
b10000000000 :
b10000000000 <
b111101000 >
b111101000 @
0G
b1000000000000000000000000000000000000000000000000000000000000000000000000000000000000000000110110 Y
#610000
0!
b0 $
b1 %
0-
b0 0
b111010 X
#615000
1!
b111011 )
b110110 *
b11011000 ,
1-
b0 2
b0 7
b1 8
b10000000000 9
b0 :
b10000000000 <
b111101000 =
b0 >
b111101000 @
1G
b1000000000000000000000000000000010000000000000000000000000000000000000000000000000000000000110111 Y
#620000
0!
b1 $
b0 %
0-
b1 0
b0 1
b111011 X
#625000
1!
b111100 )
b110111 *
b11011100 ,
1-
b1 2
b0 3
b1 7
b1 8
b0 9
b10000000000 :
b0 <
b0 =
b111101000 >
b0 @
0G
1J
b10000000000000000000000000000000000000000000000000000000000111000 Y
#630000
0!
b0 $
b0 %
0-
b0 0
b111100 X
#635000
1!
b111101 )
b111000 *
b11100000 ,
1-
b0 2
b1 8
b10000000000 9
b0 :
b0 ;
b111101000 =
b0 >
b0 ?
1G
b10000000000000000000000000000000000000000000000000000000000111001 Y
#640000
0!
b0 $
b0 %
0-
b111101 X
#645000
1!
b111110 )
b111001 *
b11100100 ,
1-
b0 9
b0 =
b1000000000000000000000000000000010000000000000000000000000000000000000000000000000000000000111010 Y
#650000
0!
b0 $
b1 %
0-
b1 1
b111110 X
#655000
1!
b111111 )
b111010 *
b11101000 ,
1-
b1 3
b1 8
b10000000000 <
b111101000 @
0J
b10000000000000000000000000000000000000000000000000000000000111011 Y
#660000
0!
b1 $
b0 %
0-
b1 0
b0 1
b111111 X
#665000
1!
b1000000 )
b111011 *
b11101100 ,
1-
b1 2
b0 3
b1 8
b10000000000 :
b10000000000 ;
b0 <
b111101000 >
b111101000 ?
b0 @
0G
1J
b1000000000000000000000000000000000000000000000000000000000000000000000000000000000000000000111100 Y
#670000
0!
b1 $
b1 %
0-
b1 1
b1000000 X
#675000
1!
b1000001 )
b111100 *
b11110000 ,
1-
b1 3
b0 8
b10000000000 9
b10000000000 :
b0 ;
b10000000000 <
b111101000 =
b111101000 >
b0 ?
b111101000 @
0J
b111101 Y
#680000
0!
b1 $
b1 %
0-
b1000001 X
#685000
1!
b1000010 )
b111101 *
b11110100 ,
1-
b0 7
b10000000000 ;
b111101000 ?
b111110 Y
#690000
0!
b0 $
b0 %
0-
b0 0
b0 1
b1000010 X
#695000
1!
b1000011 )
b111110 *
b11111000 ,
1-
b0 2
b0 3
b1 8
b0 :
b0 <
b0 >
b0 @
1G
1J
b10000000000000000000000000000000000000000000000000000000000111111 Y
#700000
0!
b0 $
b1 %
0-
b1 1
b1000011 X
#705000
1!
b1000100 )
b111111 *
b11111100 ,
1-
b1 3
b1 7
b1 8
b0 9
b0 ;
b10000000000 <
b0 =
b0 ?
b111101000 @
0J
b1000000000000000000000000000000000000000000000000000000000000000000000000000000000000000001000000 Y
#710000
0!
b1 $
b1 %
0-
b1 0
b1000100 X
#715000
1!
b1000101 )
b1000000 *
b100000000 ,
1-
b1 2
b0 8
b10000000000 :
b10000000000 ;
b10000000000 <
b111101000 >
b111101000 ?
b111101000 @
0G
b1000000000000000000000000000000010000000000000000000000000000000000000000000000000000000001000001 Y
#720000
0!
b1 $
b1 %
0-
b1000101 X
#725000
1!
b1000110 )
b1000001 *
b100000100 ,
1-
b0 7
b10000000000 9
b111101000 =
b1000000000000000000000000000000010000000000000000000000000000000000000000000000000000000001000010 Y
#730000
0!
b1 $
b1 %
0-
b1000110 X
#735000
1!
b1000111 )
b1000010 *
b100001000 ,
1-
b1000011 Y
#740000
0!
b0 $
b0 %
0-
b0 0
b0 1
b1000111 X
#745000
1!
b1001000 )
b1000011 *
b100001100 ,
1-
b0 2
b0 3
b1 8
b0 :
b0 <
b0 >
b0 @
1G
1J
b10000000000000000000000000000000000000000000000000000000001000100 Y
#750000
0!
b0 $
b1 %
0-
b1 1
b1001000 X
#755000
1!
b1001001 )
b1000100 *
b100010000 ,
1-
b1 3
b1 7
b1 8
b0 9
b0 ;
b10000000000 <
b0 =
b0 ?
b111101000 @
0J
b1000000000000000000000000000000010000000000000000000000000000000000000000000000000000000001000101 Y
#760000
0!
b1 $
b1 %
0-
b1 0
b1001001 X
#765000
1!
b1001010 )
b1000101 *
b100010100 ,
1-
b1 2
b0 8
b10000000000 :
b10000000000 ;
b10000000000 <
b111101000 >
b111101000 ?
b111101000 @
0G
b1000000000000000000000000000000010000000000000000000000000000000000000000000000000000000001000110 Y
#770000
0!
b0 $
b1 %
0-
b0 0
b1001010 X
#775000
1!
b1001011 )
b1000110 *
b100011000 ,
1-
b0 2
b0 7
b1 8
b10000000000 9
b0 :
b10000000000 <
b111101000 =
b0 >
b111101000 @
1G
b1000000000000000000000000000000010000000000000000000000000000000000000000000000000000000001000111 Y
#780000
0!
b1 $
b0 %
0-
b1 0
b0 1
b1001011 X
#785000
1!
b1001100 )
b1000111 *
b100011100 ,
1-
b1 2
b0 3
b1 7
b1 8
b0 9
b10000000000 :
b0 <
b0 =
b111101000 >
b0 @
0G
1J
b1001000 Y
#790000
0!
b1 $
b0 %
0-
b1001100 X
#795000
1!
b1001101 )
b1001000 *
b100100000 ,
1-
b10000000000 9
b0 ;
b111101000 =
b0 ?
b10000000000000000000000000000000000000000000000000000000001001001 Y
#800000
0!
b1 $
b1 %
0-
b1 1
b1001101 X
#805000
1!
b1001110 )
b1001001 *
b100100100 ,
1-
b1 3
b0 8
b10000000000 :
b10000000000 <
b111101000 >
b111101000 @
0J
b1000000000000000000000000000000010000000000000000000000000000000000000000000000000000000001001010 Y
#810000
0!
b1 $
b0 %
0-
b0 1
b1001110 X
#815000
1!
b1001111 )
b1001010 *
b100101000 ,
1-
b0 3
b0 7
b1 8
b10000000000 :
b10000000000 ;
b0 <
b111101000 >
b111101000 ?
b0 @
1J
b10000000000000000000000000000000000000000000000000000000001001011 Y
#820000
0!
b0 $
b0 %
0-
b0 0
b1001111 X
#825000
1!
b1010000 )
b1001011 *
b100101100 ,
1-
b0 2
b1 7
b1 8
b0 :
b0 ;
b0 >
b0 ?
1G
b1000000000000000000000000000000000000000000000000000000000000000000000000000000000000000001001100 Y
#830000
0!
b0 $
b1 %
0-
b1 1
b1010000 X
#835000
1!
b1010001 )
b1001100 *
b100110000 ,
1-
b1 3
b1 8
b0 9
b10000000000 <
b0 =
b111101000 @
0J
b1000000000000000000000000000000000000000000000000000000000000000000000000000000000000000001001101 Y
#840000
0!
b0 $
b0 %
0-
b0 1
b1010001 X
#845000
1!
b1010010 )
b1001101 *
b100110100 ,
1-
b0 3
b1 8
b10000000000 ;
b0 <
b111101000 ?
b0 @
1J
b1000000000000000000000000000000010000000000000000000000000000000000000000000000000000000001001110 Y
#850000
0!
b0 $
b0 %
0-
b1010010 X
#855000
1!
b1010011 )
b1001110 *
b100111000 ,
1-
b0 ;
b0 ?
b1000000000000000000000000000000000000000000000000000000000000000000000000000000000000000001001111 Y
#860000
0!
b0 $
b0 %
0-
b1010011 X
#865000
1!
b1010100 )
b1001111 *
b100111100 ,
1-
b1010000 Y
#870000
0!
b1 $
b0 %
0-
b1 0
b1010100 X
#875000
1!
b1010101 )
b1010000 *
b101000000 ,
1-
b1 2
b1 8
b10000000000 :
b111101000 >
0G
b10000000000000000000000000000000000000000000000000000000001010001 Y
#880000
0!
b0 $
b1 %
0-
b0 0
b1 1
b1010101 X
#885000
1!
b1010110 )
b1010001 *
b101000100 ,
1-
b0 2
b1 3
b1 8
b10000000000 9
b0 :
b10000000000 <
b111101000 =
b0 >
b111101000 @
1G
0J
b1010010 Y
#890000
0!
b0 $
b1 %
0-
b1010110 X
#895000
1!
b1010111 )
b1010010 *
b101001000 ,
1-
b0 9
b10000000000 ;
b0 =
b111101000 ?
b1010011 Y
#900000
0!
b0 $
b0 %
0-
b0 1
b1010111 X
#905000
1!
b1011000 )
b1010011 *
b101001100 ,
1-
b0 3
b1 8
b0 <
b0 @
1J
b1010100 Y
#910000
0!
b1 $
b0 %
0-
b1 0
b1011000 X
#915000
1!
b1011001 )
b1010100 *
b101010000 ,
1-
b1 2
b1 8
b10000000000 :
b0 ;
b111101000 >
b0 ?
0G
b1000000000000000000000000000000000000000000000000000000000000000000000000000000000000000001010101 Y
#920000
0!
b1 $
b0 %
0-
b1011001 X
#925000
1!
b1011010 )
b1010101 *
b101010100 ,
1-
b10000000000 9
b111101000 =
b10000000000000000000000000000000000000000000000000000000001010110 Y
#930000
0!
b1 $
b1 %
0-
b1 1
b1011010 X
#935000
1!
b1011011 )
b1010110 *
b101011000 ,
1-
b1 3
b0 8
b10000000000 :
b10000000000 <
b111101000 >
b111101000 @
0J
b10000000000000000000000000000000000000000000000000000000001010111 Y
#940000
0!
b0 $
b1 %
0-
b0 0
b1011011 X
#945000
1!
b1011100 )
b1010111 *
b101011100 ,
1-
b0 2
b0 7
b1 8
b0 :
b10000000000 ;
b10000000000 <
b0 >
b111101000 ?
b111101000 @
1G
b1011000 Y
#950000
0!
b0 $
b1 %
0-
b1011100 X
#955000
1!
b1011101 )
b1011000 *
b101100000 ,
1-
b1 7
b0 9
b0 =
b1000000000000000000000000000000000000000000000000000000000000000000000000000000000000000001011001 Y
#960000
0!
b1 $
b1 %
0-
b1 0
b1011101 X
#965000
1!
b1011110 )
b1011001 *
b101100100 ,
1-
b1 2
b0 8
b10000000000 :
b10000000000 <
b111101000 >
b111101000 @
0G
b1000000000000000000000000000000000000000000000000000000000000000000000000000000000000000001011010 Y
